<?xml version="1.0" encoding="UTF-8" standalone="no"?>
<svg width="1771.65px" height="425.197px" viewBox="0 0 1771.65 425.197"
 xmlns="http://www.w3.org/2000/svg" xmlns:xlink="http://www.w3.org/1999/xlink" version="1.2" baseProfile="tiny">
<title>080_two-constant-frequencies_decreasing-loudness</title>
<desc>Generated by MuseScore 4.2.1</desc>
<polyline class="StaffLines" fill="none" stroke="#000000" stroke-width="2.73" stroke-linejoin="bevel" points="124,173.6 1771.65,173.6"/>
<polyline class="StaffLines" fill="none" stroke="#000000" stroke-width="2.73" stroke-linejoin="bevel" points="124,198.4 1771.65,198.4"/>
<polyline class="StaffLines" fill="none" stroke="#000000" stroke-width="2.73" stroke-linejoin="bevel" points="124,223.2 1771.65,223.2"/>
<polyline class="StaffLines" fill="none" stroke="#000000" stroke-width="2.73" stroke-linejoin="bevel" points="124,248 1771.65,248"/>
<polyline class="StaffLines" fill="none" stroke="#000000" stroke-width="2.73" stroke-linejoin="bevel" points="124,272.8 1771.65,272.8"/>
<polyline class="BarLine" fill="none" stroke="#000000" stroke-width="4.46" stroke-linejoin="bevel" points="1016.34,172.236 1016.34,274.164"/>
<polyline class="BarLine" fill="none" stroke="#000000" stroke-width="4.46" stroke-linejoin="bevel" points="1746.61,172.236 1746.61,274.164"/>
<polyline class="BarLine" fill="none" stroke="#000000" stroke-width="13.64" stroke-linejoin="bevel" points="1764.83,172.236 1764.83,274.164"/>
<polyline class="LedgerLine" fill="none" stroke="#000000" stroke-width="3.97" stroke-linejoin="bevel" points="312.368,297.6 365.735,297.6"/>
<polyline class="LedgerLine" fill="none" stroke="#000000" stroke-width="3.97" stroke-linejoin="bevel" points="1042.63,297.6 1096,297.6"/>
<path class="Note" transform="matrix(0.992001,0,0,0.992001,320.552,297.6)" d="M18.7031,-13.5938 C4.90625,-13.5938 0,-6.59375 0,-0.09375 C0,6.40625 4.90625,13.4063 18.7031,13.4063 C32.5,13.4063 37.2969,6.40625 37.2969,-0.09375 C37.2969,-6.59375 32.5,-13.5938 18.7031,-13.5938 M19.5,10.2031 C16.7031,10.2031 14.7969,9.40625 13.5,6.90625 C12.2031,4.40625 10.4063,-2.09375 10.2969,-4.70313 C10.0938,-7.40625 11.0938,-9 13.5,-9.79688 C14.7031,-10.2031 16.2969,-10.4063 17.9063,-10.4063 C20.5938,-10.4063 22.4063,-9.79688 23.7969,-7.09375 C25.2031,-4.5 27.1094,2 27.1094,4.5 C27.1094,9.40625 23.5,10.2031 19.5,10.2031"/>
<path class="Note" transform="matrix(0.992001,0,0,0.992001,1050.81,297.6)" d="M18.7031,-13.5938 C4.90625,-13.5938 0,-6.59375 0,-0.09375 C0,6.40625 4.90625,13.4063 18.7031,13.4063 C32.5,13.4063 37.2969,6.40625 37.2969,-0.09375 C37.2969,-6.59375 32.5,-13.5938 18.7031,-13.5938 M19.5,10.2031 C16.7031,10.2031 14.7969,9.40625 13.5,6.90625 C12.2031,4.40625 10.4063,-2.09375 10.2969,-4.70313 C10.0938,-7.40625 11.0938,-9 13.5,-9.79688 C14.7031,-10.2031 16.2969,-10.4063 17.9063,-10.4063 C20.5938,-10.4063 22.4063,-9.79688 23.7969,-7.09375 C25.2031,-4.5 27.1094,2 27.1094,4.5 C27.1094,9.40625 23.5,10.2031 19.5,10.2031"/>
<path class="Note" transform="matrix(0.992001,0,0,0.992001,320.552,272.8)" d="M18.7031,-13.5938 C4.90625,-13.5938 0,-6.59375 0,-0.09375 C0,6.40625 4.90625,13.4063 18.7031,13.4063 C32.5,13.4063 37.2969,6.40625 37.2969,-0.09375 C37.2969,-6.59375 32.5,-13.5938 18.7031,-13.5938 M19.5,10.2031 C16.7031,10.2031 14.7969,9.40625 13.5,6.90625 C12.2031,4.40625 10.4063,-2.09375 10.2969,-4.70313 C10.0938,-7.40625 11.0938,-9 13.5,-9.79688 C14.7031,-10.2031 16.2969,-10.4063 17.9063,-10.4063 C20.5938,-10.4063 22.4063,-9.79688 23.7969,-7.09375 C25.2031,-4.5 27.1094,2 27.1094,4.5 C27.1094,9.40625 23.5,10.2031 19.5,10.2031"/>
<path class="Note" transform="matrix(0.992001,0,0,0.992001,1050.81,272.8)" d="M18.7031,-13.5938 C4.90625,-13.5938 0,-6.59375 0,-0.09375 C0,6.40625 4.90625,13.4063 18.7031,13.4063 C32.5,13.4063 37.2969,6.40625 37.2969,-0.09375 C37.2969,-6.59375 32.5,-13.5938 18.7031,-13.5938 M19.5,10.2031 C16.7031,10.2031 14.7969,9.40625 13.5,6.90625 C12.2031,4.40625 10.4063,-2.09375 10.2969,-4.70313 C10.0938,-7.40625 11.0938,-9 13.5,-9.79688 C14.7031,-10.2031 16.2969,-10.4063 17.9063,-10.4063 C20.5938,-10.4063 22.4063,-9.79688 23.7969,-7.09375 C25.2031,-4.5 27.1094,2 27.1094,4.5 C27.1094,9.40625 23.5,10.2031 19.5,10.2031"/>
<path class="Clef" transform="matrix(0.992001,0,0,0.992001,142.6,248)" d="M12.2969,51.2969 C12.2969,57.9063 17.2969,66.6094 30.7969,66.6094 C35.5,66.6094 39.6094,65.4063 43.2031,63.2031 C48.6094,59.4063 50,52.7969 50,46.5 C50,42.6094 49.4063,38.1094 48.4063,32.4063 C48.1094,30.4063 47.5,27.4063 46.9063,23.5 C56.7031,20.2969 64,10.0938 64,-0.203125 C64,-15.2969 53.2969,-25.5 38.7031,-25.5 C37.7031,-31.5 36.7031,-37.4063 35.9063,-43 C46.4063,-54.1094 53.7031,-66.6094 53.7031,-82.5 C53.7031,-91.6094 50.9063,-99 49.2969,-102.609 C46.9063,-107.703 44,-111.203 42.2031,-111.203 C41.5,-111.203 38.4063,-110 35.1094,-106.109 C28.7031,-98.5 26.9063,-85.7031 26.9063,-77.3125 C26.9063,-71.9063 27.4063,-67 29.1094,-55.7969 C29,-55.7031 23.7969,-50.4063 21.7031,-48.7031 C12.5938,-40.2969 0,-28.1094 0,-8.09375 C0,10.5938 16.2969,25.2969 34.9063,25.2969 C37.7969,25.2969 40.5,25 42.7969,24.5938 C44.7031,34.2031 45.9063,41.2031 45.9063,46.5 C45.9063,56.9063 40.5,62.4063 30.4063,62.4063 C28,62.4063 25.9063,61.9063 25.7031,61.9063 C25.6094,61.7969 25.4063,61.7031 25.4063,61.6094 C25.4063,61.4063 25.6094,61.2969 25.9063,61.2969 C30.6094,60.5 35.2969,56.5 35.2969,50.1094 C35.2969,44.7031 31.2031,39 23.7031,39 C16.7031,39 12.2969,44.7031 12.2969,51.2969 M33.2031,-82.2031 C34.1094,-86.2031 38.7031,-96.7031 43.9063,-96.7031 C45.4063,-96.7031 47.7969,-91.9063 47.7969,-84.9063 C47.7969,-74.5 40.1094,-66.7031 33.2031,-59.9063 C32.6094,-63.9063 32.1094,-67.7969 32.1094,-72 C32.1094,-75.7031 32.4063,-79.1094 33.2031,-82.2031 M42,20.5938 C40,21 38.1094,21.2031 36.2031,21.2031 C21.9063,21.2031 9.70313,11.2031 9.70313,-3.90625 C9.70313,-16.0938 18.2969,-27 27.1094,-34.6094 C28.7969,-36.1094 30.4063,-37.5 31.9063,-39 C32.7969,-33.6094 33.5,-28.9063 34.2031,-24.7969 C25.0938,-22.0938 18.9063,-12.5 18.9063,-3.09375 C18.9063,3.90625 24.4063,13.5 32.4063,13.5 C33.2031,13.5 34.1094,13.0938 34.1094,12.2031 C34.1094,11.2969 33.1094,10.7969 31.9063,10 C28,7.59375 25.7969,5 25.7969,0.09375 C25.7969,-6 30.4063,-10.9063 36.2031,-12.2969 L42,20.5938 M56.2031,2.09375 C56.2031,9.20313 53.2969,16.5 46.2031,19.4063 C44.1094,7.40625 41.4063,-8.5 40.7031,-12.9063 C49.7031,-12.9063 56.2031,-6.79688 56.2031,2.09375"/>
<path class="TimeSig" transform="matrix(0.992001,0,0,0.992001,229.493,198.4)" d="M20.7969,12.7031 L20.7969,20.0938 L12.5,20.0938 C11.7969,20.0938 11.0938,20.7031 11.0938,21.5 L11.0938,23.4063 C11.0938,24.2031 11.7969,24.7969 12.5,24.7969 L42.7969,24.7969 C43.6094,24.7969 44.2031,24.2031 44.2031,23.4063 L44.2031,21.5 C44.2031,20.7031 43.6094,20.0938 42.7969,20.0938 L33.9063,20.0938 L33.9063,12.7031 L42.7969,12.7031 C43.6094,12.7031 44.2031,12 44.2031,11.2031 L44.2031,9.29688 C44.2031,8.59375 43.6094,7.90625 42.7969,7.90625 L33.9063,7.90625 L33.9063,-8 C33.9063,-8.59375 33.6094,-9.09375 33.1094,-9.29688 L31.9063,-9.90625 C31.7031,-10 31.4063,-10.0938 31.2031,-10.0938 C30.9063,-10 30.5,-9.90625 30.2969,-9.70313 L21.2031,-1.40625 C20.9063,-1.09375 20.7969,-0.703125 20.7969,-0.296875 L20.7969,7.90625 L9.29688,7.90625 C9.29688,7.90625 20.4063,-4.09375 32.2031,-19.9063 C32.6094,-20.4063 32.7031,-20.9063 32.7031,-21.2969 C32.7031,-21.7969 32.5,-22.2031 32.4063,-22.2969 L30.2031,-24.5 C30,-24.7031 29.6094,-24.9063 29.2031,-24.9063 C28.6094,-24.9063 15.0938,-24.9063 14.4063,-24.9063 C13.5938,-24.9063 13.0938,-24.2969 13,-23.7031 C13,-23.7031 12.5,-16.2969 9.90625,-8.20313 C7.29688,-0.09375 4.29688,4.90625 1.70313,8.59375 C1.70313,8.59375 1.40625,9.09375 1.40625,9.70313 C1.40625,9.90625 1.40625,10.0938 1.5,10.2969 C1.90625,11 2.5,12.0938 2.5,12.0938 C2.5,12.0938 2.70313,12.7031 3.59375,12.7031 L20.7969,12.7031 "/>
<path class="TimeSig" transform="matrix(0.992001,0,0,0.992001,229.493,248)" d="M20.7969,12.7031 L20.7969,20.0938 L12.5,20.0938 C11.7969,20.0938 11.0938,20.7031 11.0938,21.5 L11.0938,23.4063 C11.0938,24.2031 11.7969,24.7969 12.5,24.7969 L42.7969,24.7969 C43.6094,24.7969 44.2031,24.2031 44.2031,23.4063 L44.2031,21.5 C44.2031,20.7031 43.6094,20.0938 42.7969,20.0938 L33.9063,20.0938 L33.9063,12.7031 L42.7969,12.7031 C43.6094,12.7031 44.2031,12 44.2031,11.2031 L44.2031,9.29688 C44.2031,8.59375 43.6094,7.90625 42.7969,7.90625 L33.9063,7.90625 L33.9063,-8 C33.9063,-8.59375 33.6094,-9.09375 33.1094,-9.29688 L31.9063,-9.90625 C31.7031,-10 31.4063,-10.0938 31.2031,-10.0938 C30.9063,-10 30.5,-9.90625 30.2969,-9.70313 L21.2031,-1.40625 C20.9063,-1.09375 20.7969,-0.703125 20.7969,-0.296875 L20.7969,7.90625 L9.29688,7.90625 C9.29688,7.90625 20.4063,-4.09375 32.2031,-19.9063 C32.6094,-20.4063 32.7031,-20.9063 32.7031,-21.2969 C32.7031,-21.7969 32.5,-22.2031 32.4063,-22.2969 L30.2031,-24.5 C30,-24.7031 29.6094,-24.9063 29.2031,-24.9063 C28.6094,-24.9063 15.0938,-24.9063 14.4063,-24.9063 C13.5938,-24.9063 13.0938,-24.2969 13,-23.7031 C13,-23.7031 12.5,-16.2969 9.90625,-8.20313 C7.29688,-0.09375 4.29688,4.90625 1.70313,8.59375 C1.70313,8.59375 1.40625,9.09375 1.40625,9.70313 C1.40625,9.90625 1.40625,10.0938 1.5,10.2969 C1.90625,11 2.5,12.0938 2.5,12.0938 C2.5,12.0938 2.70313,12.7031 3.59375,12.7031 L20.7969,12.7031 "/>
<path class="Dynamic" d="M379.325,330.049 C378.731,325.596 374.481,323.517 370.419,323.517 C361.106,323.517 357.059,333.017 354.575,340.439 L354.575,340.642 L339.028,340.642 L339.138,340.252 C341.903,330.049 342.7,328.361 344.184,327.174 C344.981,326.58 345.669,326.392 346.169,326.392 C346.356,326.392 346.559,326.486 346.653,326.486 C347.247,326.58 347.747,327.174 347.747,327.767 C347.747,328.267 347.544,328.767 347.153,328.955 C346.169,329.752 345.669,331.033 345.669,332.33 C345.669,332.814 345.763,333.314 345.872,333.814 C346.169,334.705 346.95,335.689 347.95,336.096 C348.341,336.283 348.934,336.392 349.528,336.392 C351.606,336.392 353.888,334.908 354.481,332.814 C354.684,332.33 354.684,331.736 354.684,331.142 C354.684,326.096 349.919,323.611 345.466,323.611 C336.356,323.611 332.309,333.111 329.825,340.439 L329.731,340.642 L314.278,340.642 L314.388,340.252 C317.153,330.049 317.95,328.361 319.434,327.174 C320.231,326.58 320.919,326.392 321.419,326.392 C321.606,326.392 321.809,326.486 321.903,326.486 C322.497,326.58 322.997,327.174 322.997,327.767 C322.997,328.267 322.794,328.767 322.403,328.955 C321.419,329.752 320.919,331.033 320.919,332.33 C320.919,332.814 321.013,333.314 321.122,333.814 C321.419,334.705 322.2,335.689 323.2,336.096 C323.591,336.283 324.184,336.392 324.778,336.392 C326.95,336.392 329.044,334.908 329.638,332.814 C329.825,332.221 329.934,331.533 329.934,330.939 C329.934,329.752 329.638,328.564 328.934,327.471 C327.544,324.799 323.591,323.611 320.716,323.611 C311.606,323.611 307.559,333.111 305.075,340.439 L304.981,340.642 L297.45,340.642 C296.856,340.642 296.466,341.033 296.466,341.627 L296.466,343.814 C296.466,344.408 296.856,344.799 297.45,344.799 L303.7,344.799 L303.591,345.189 C302.606,349.158 301.809,352.627 301.122,355.892 C300.325,359.549 299.434,363.408 298.247,367.971 L297.95,369.158 C295.872,377.267 295.184,380.142 292.809,381.721 C292.309,382.017 291.716,382.221 291.122,382.221 C290.622,382.221 290.231,382.127 289.825,381.83 C289.528,381.627 289.138,381.127 289.231,380.642 C289.341,380.236 289.638,379.939 290.122,379.752 C292.013,378.955 292.606,377.08 292.606,375.486 C292.606,374.111 291.622,371.533 288.044,371.533 C285.372,371.533 282.903,374.111 282.903,376.783 C282.903,382.017 286.466,384.799 291.028,384.799 C294.184,384.799 296.466,383.705 298.934,381.236 C303.294,376.877 308.044,362.033 310.528,353.611 C311.419,350.439 312.309,347.283 312.997,345.002 L312.997,344.799 L328.45,344.799 L328.341,345.189 C327.356,349.158 326.559,352.627 325.872,355.892 C325.075,359.549 324.184,363.408 322.997,367.971 L322.7,369.158 C320.716,377.267 319.934,380.142 317.559,381.721 C317.059,382.017 316.466,382.221 315.872,382.221 C315.372,382.221 314.981,382.127 314.575,381.83 C314.278,381.627 313.888,381.127 313.981,380.642 C314.091,380.236 314.388,379.939 314.872,379.752 C316.763,378.955 317.356,377.08 317.356,375.486 C317.356,374.111 316.372,371.533 312.794,371.533 C310.122,371.533 307.653,374.002 307.653,376.674 C307.653,381.924 311.216,384.799 315.778,384.799 C318.934,384.799 321.216,383.705 323.684,381.236 C328.044,376.877 332.794,362.033 335.278,353.611 C336.169,350.439 337.059,347.283 337.747,345.002 L337.747,344.799 L353.497,344.799 L350.122,358.064 C349.325,361.033 348.638,364.205 347.747,367.861 L347.45,369.049 C346.169,374.111 345.466,377.174 344.481,379.158 C343.888,380.346 343.2,381.127 342.309,381.721 C342.106,381.924 341.716,382.017 341.419,382.127 C341.216,382.221 341.013,382.221 340.716,382.221 C339.231,382.221 338.731,381.33 338.731,380.642 C338.731,379.939 339.528,379.752 339.622,379.752 C341.513,378.955 342.106,377.08 342.106,375.486 C342.106,374.111 341.122,371.533 337.544,371.533 C334.872,371.533 332.403,374.002 332.403,376.674 C332.403,381.83 335.669,384.705 340.513,384.705 C343.684,384.705 345.966,383.705 348.434,381.236 C352.794,376.877 357.544,362.033 360.028,353.611 C360.919,350.439 361.809,347.283 362.497,345.002 L362.497,344.892 L362.591,344.799 L369.731,344.799 C370.325,344.799 370.716,344.408 370.716,343.814 L370.716,341.627 C370.716,341.033 370.325,340.549 369.731,340.549 L363.778,340.549 L363.888,340.252 C366.059,332.33 367.059,329.455 368.044,328.064 C368.247,327.767 368.731,327.283 368.934,327.08 C369.325,326.783 369.825,326.392 370.919,326.392 C372.294,326.392 372.497,327.283 372.497,327.674 C372.497,328.267 372.403,328.564 371.903,328.955 C370.919,329.752 370.419,330.939 370.419,332.221 C370.419,332.721 370.419,333.314 370.622,333.814 C370.716,334.111 370.809,334.408 371.013,334.611 C371.997,335.799 372.888,336.283 374.481,336.283 C376.559,336.283 378.638,334.908 379.231,332.814 C379.325,332.221 379.434,331.533 379.434,330.939 L379.325,330.346 C379.325,330.346 379.325,330.252 379.325,330.142 L379.325,330.049 "/>
<path class="Dynamic" d="M1062.38,371.33 C1059.71,371.33 1057.24,373.814 1057.24,376.486 C1057.24,381.627 1060.69,384.502 1065.25,384.502 C1068.42,384.502 1070.69,383.502 1073.17,381.033 C1077.52,376.674 1082.28,361.924 1084.66,353.517 C1085.55,350.346 1086.44,347.283 1087.13,345.002 L1087.13,344.799 L1094.25,344.799 C1094.85,344.799 1095.25,344.408 1095.25,343.814 L1095.25,341.627 C1095.25,341.033 1094.85,340.642 1094.25,340.642 L1088.41,340.642 L1088.41,340.346 C1091.19,330.252 1091.99,328.471 1093.47,327.283 C1094.25,326.689 1094.96,326.486 1095.44,326.486 C1095.64,326.486 1095.85,326.58 1095.94,326.58 C1096.53,326.689 1097.03,327.283 1097.03,327.877 C1097.03,328.361 1096.83,328.861 1096.44,329.064 C1095.44,329.846 1094.96,331.142 1094.96,332.517 C1094.96,333.017 1095.05,333.408 1095.14,333.908 C1095.44,334.799 1096.24,335.689 1097.22,336.096 C1097.63,336.283 1098.31,336.486 1099,336.486 C1101.08,336.486 1103.16,334.908 1103.66,332.924 C1103.86,332.424 1103.86,331.83 1103.86,331.236 C1103.86,326.283 1099.41,323.721 1094.96,323.721 C1085.74,323.721 1081.69,333.111 1079.21,340.439 L1079.21,340.642 L1071.69,340.642 C1071.1,340.642 1070.69,341.033 1070.69,341.627 L1070.69,343.814 C1070.69,344.408 1071.1,344.799 1071.69,344.799 L1077.81,344.799 L1077.81,345.189 C1076.83,349.158 1076.03,352.517 1075.35,355.783 C1074.55,359.455 1073.66,363.221 1072.47,367.767 L1072.17,368.955 C1070.1,377.08 1069.5,379.939 1067.13,381.533 C1066.64,381.83 1066.05,382.017 1065.46,382.017 C1064.96,382.017 1064.46,381.83 1064.06,381.533 C1063.66,381.236 1063.56,380.939 1063.56,380.439 C1063.66,380.049 1063.86,379.642 1064.36,379.455 C1066.24,378.658 1066.83,376.877 1066.83,375.299 C1066.83,373.908 1065.94,371.33 1062.38,371.33 M1067.33,361.033 C1066.83,361.924 1066.35,362.127 1065.85,362.127 C1065.64,362.127 1065.55,362.127 1065.35,362.033 C1064.85,361.83 1064.66,361.439 1064.66,360.939 C1064.66,360.142 1065.94,355.486 1066.35,354.596 C1066.94,352.814 1067.63,348.767 1067.63,346.08 C1067.63,345.596 1067.63,345.096 1067.53,344.705 C1067.03,342.033 1065.85,340.736 1063.77,340.736 C1061.19,340.736 1058.42,342.627 1057.13,344.299 L1056.94,344.705 L1056.74,344.205 C1056.74,344.205 1055.16,340.736 1052.47,340.736 C1049.71,340.736 1047.63,341.83 1045.94,344.111 L1045.64,344.502 L1045.55,344.002 C1045.55,344.002 1044.27,341.142 1041.78,340.642 C1041.3,340.549 1040.8,340.549 1040.41,340.549 C1036.35,340.549 1034.16,344.705 1033.08,348.064 L1034.56,348.861 C1034.56,348.861 1036.24,343.517 1038.42,343.517 C1038.61,343.517 1038.72,343.517 1038.91,343.611 C1039.5,343.814 1039.71,344.299 1039.71,345.096 C1039.71,346.486 1038.91,348.861 1037.83,352.033 C1037.83,352.127 1034.16,363.111 1033.86,364.111 L1033.77,364.408 C1033.77,364.705 1033.86,364.892 1033.97,365.096 C1034.16,365.299 1034.36,365.486 1034.75,365.486 L1040,365.486 C1040.21,365.486 1040.71,365.486 1041.1,363.908 C1042.08,359.361 1046.24,344.111 1049.91,344.111 C1050.1,344.111 1050.39,344.205 1050.5,344.408 C1050.69,344.596 1050.8,345.002 1050.8,345.486 C1050.8,347.174 1049.8,350.346 1048.61,354.408 C1047.13,359.252 1045.64,363.908 1045.64,363.908 C1045.64,364.002 1045.64,364.111 1045.64,364.299 C1045.64,365.002 1045.85,365.486 1046.64,365.486 L1052.08,365.486 C1052.47,365.486 1052.97,365.392 1053.17,364.299 C1053.17,364.205 1053.27,363.908 1053.27,363.611 C1055.25,349.752 1058.42,345.596 1060.8,344.596 L1060.89,344.502 C1060.99,344.502 1060.99,344.502 1060.99,344.502 L1061.1,344.502 C1061.19,344.596 1061.28,344.596 1061.28,344.596 C1061.49,344.705 1061.78,345.002 1061.78,345.486 C1061.78,346.486 1061.19,350.439 1059.11,355.783 C1058.52,357.377 1058.22,358.861 1058.22,360.252 C1058.22,363.314 1059.8,365.596 1063.17,365.596 C1067.63,365.596 1069.31,362.033 1070.69,358.361 L1070.69,358.064 C1070.8,358.064 1070.8,357.971 1070.8,357.971 L1069.11,357.174 C1069.11,357.174 1068.02,359.846 1067.33,361.033"/>
</svg>
