,f0_hz,f0_scaled,loudness_db,ld_scaled,z_col_0,z_col_1,z_col_2,z_col_3,z_col_4,z_col_5,z_col_6,z_col_7,z_col_8,z_col_9,z_col_10,z_col_11,z_col_12,z_col_13,z_col_14,z_col_15
0,256.5454,0.4697679,-65.85102,0.17686224,,,,,,,,,,,,,,,,
1,256.34048,0.46965894,-57.390537,0.28261828,,,,,,,,,,,,,,,,
2,256.39664,0.46968886,-50.727432,0.36590707,,,,,,,,,,,,,,,,
3,256.67725,0.469838,-45.217735,0.43477833,,,,,,,,,,,,,,,,
4,256.84476,0.46992695,-40.536648,0.4932919,,,,,,,,,,,,,,,,
5,257.08456,0.4700541,-37.032085,0.53709894,,,,,,,,,,,,,,,,
6,257.3729,0.47020692,-34.643295,0.5669588,,,,,,,,,,,,,,,,
7,257.77628,0.4704204,-32.93943,0.58825713,,,,,,,,,,,,,,,,
8,258.0498,0.47056502,-31.36537,0.60793287,,,,,,,,,,,,,,,,
9,258.29694,0.4706955,-29.619678,0.629754,,,,,,,,,,,,,,,,
10,258.5199,0.4708131,-27.879778,0.6515028,,,,,,,,,,,,,,,,
11,258.71246,0.47091463,-26.420172,0.6697478,,,,,,,,,,,,,,,,
12,259.08917,0.47111288,-25.328062,0.6833992,,,,,,,,,,,,,,,,
13,259.39362,0.471273,-24.520777,0.69349027,,,,,,,,,,,,,,,,
14,259.7199,0.4714444,-23.892662,0.70134175,,,,,,,,,,,,,,,,
15,260.43378,0.47181854,-23.404854,0.7074393,,,,,,,,,,,,,,,,
16,261.2958,0.472269,-23.066002,0.711675,,,,,,,,,,,,,,,,
17,262.0628,0.47266865,-22.87673,0.7140409,,,,,,,,,,,,,,,,
18,262.48834,0.47288978,-22.768114,0.71539855,,,,,,,,,,,,,,,,
19,262.7177,0.4730088,-22.333864,0.7208267,,,,,,,,,,,,,,,,
20,262.90652,0.47310677,-21.091614,0.7363548,,,,,,,,,,,,,,,,
21,262.9207,0.47311407,-19.638636,0.7545171,,,,,,,,,,,,,,,,
22,262.62018,0.47295818,-18.921711,0.76347864,,,,,,,,,,,,,,,,
23,262.36456,0.47282544,-19.324059,0.75844926,,,,,,,,,,,,,,,,
24,262.2226,0.47275165,-20.703938,0.7412008,,,,,,,,,,,,,,,,
25,261.57993,0.47241715,-22.458405,0.71926993,,,,,,,,,,,,,,,,
26,261.67087,0.47246456,-23.329456,0.7083818,,,,,,,,,,,,,,,,
27,262.31686,0.47280067,-21.877066,0.7265367,,,,,,,,,,,,,,,,
28,263.0955,0.47320464,-19.477755,0.7565281,,,,,,,,,,,,,,,,
29,263.09622,0.4732051,-17.787636,0.7776545,,,,,,,,,,,,,,,,
30,263.09824,0.47320607,-16.853176,0.7893353,,,,,,,,,,,,,,,,
31,263.01794,0.47316453,-16.182484,0.79771894,,,,,,,,,,,,,,,,
32,262.90372,0.47310534,-15.610472,0.8048691,,,,,,,,,,,,,,,,
33,262.76917,0.47303557,-15.272614,0.80909234,,,,,,,,,,,,,,,,
34,262.52863,0.4729107,-15.126288,0.81092143,,,,,,,,,,,,,,,,
35,262.2814,0.4727822,-15.11463,0.8110671,,,,,,,,,,,,,,,,
36,261.94873,0.4726092,-15.448038,0.80689955,,,,,,,,,,,,,,,,
37,261.46497,0.47235724,-16.29675,0.79629064,,,,,,,,,,,,,,,,
38,261.06305,0.47214755,-17.426329,0.7821709,,,,,,,,,,,,,,,,
39,260.98248,0.47210547,-18.422913,0.7697136,,,,,,,,,,,,,,,,
40,261.15894,0.47219765,-19.314672,0.7585666,,,,,,,,,,,,,,,,
41,261.6363,0.47244653,-20.326912,0.7459136,,,,,,,,,,,,,,,,
42,262.20596,0.472743,-21.185452,0.73518187,,,,,,,,,,,,,,,,
43,262.50665,0.47289926,-21.495459,0.7313068,,,,,,,,,,,,,,,,
44,262.67883,0.47298864,-21.519943,0.7310007,,,,,,,,,,,,,,,,
45,262.71158,0.47300568,-21.408926,0.73238844,,,,,,,,,,,,,,,,
46,262.1413,0.47270948,-20.532684,0.74334145,,,,,,,,,,,,,,,,
47,261.06097,0.47214645,-18.63377,0.76707786,,,,,,,,,,,,,,,,
48,259.92447,0.47155172,-16.509825,0.7936272,,,,,,,,,,,,,,,,
49,259.3203,0.47123444,-14.720323,0.81599593,,,,,,,,,,,,,,,,
50,259.01486,0.47107378,-13.382443,0.83271945,,,,,,,,,,,,,,,,
51,258.841,0.4709823,-12.519557,0.8435055,,,,,,,,,,,,,,,,
52,258.84122,0.4709824,-12.125572,0.84843034,,,,,,,,,,,,,,,,
53,258.93774,0.47103325,-12.0915,0.8488562,,,,,,,,,,,,,,,,
54,258.96533,0.47104773,-12.216574,0.84729284,,,,,,,,,,,,,,,,
55,258.97293,0.47105178,-12.351732,0.84560335,,,,,,,,,,,,,,,,
56,259.01462,0.4710737,-12.48996,0.8438755,,,,,,,,,,,,,,,,
57,259.26202,0.4712039,-12.691282,0.84135896,,,,,,,,,,,,,,,,
58,259.6116,0.47138745,-12.962133,0.83797336,,,,,,,,,,,,,,,,
59,259.95966,0.4715701,-13.264359,0.8341955,,,,,,,,,,,,,,,,
60,260.50494,0.47185585,-13.650097,0.8293738,,,,,,,,,,,,,,,,
61,261.16913,0.47220296,-14.305841,0.821177,,,,,,,,,,,,,,,,
62,261.80017,0.47253194,-15.371104,0.8078612,,,,,,,,,,,,,,,,
63,262.18027,0.47272965,-16.674025,0.7915747,,,,,,,,,,,,,,,,
64,262.366,0.47282618,-17.68771,0.7789036,,,,,,,,,,,,,,,,
65,262.3578,0.47282192,-18.11131,0.7736086,,,,,,,,,,,,,,,,
66,262.19308,0.47273633,-18.28569,0.7714289,,,,,,,,,,,,,,,,
67,261.6506,0.472454,-18.474606,0.7690674,,,,,,,,,,,,,,,,
68,260.6712,0.4719428,-18.52708,0.7684115,,,,,,,,,,,,,,,,
69,260.16556,0.47167817,-18.31645,0.7710444,,,,,,,,,,,,,,,,
70,260.0513,0.47161824,-17.985664,0.7751792,,,,,,,,,,,,,,,,
71,260.51306,0.47186008,-17.701092,0.77873635,,,,,,,,,,,,,,,,
72,261.0078,0.4721187,-17.464655,0.7816918,,,,,,,,,,,,,,,,
73,261.67297,0.47246563,-17.16487,0.78543913,,,,,,,,,,,,,,,,
74,262.32983,0.47280744,-16.739511,0.7907561,,,,,,,,,,,,,,,,
75,262.8935,0.4731,-16.285763,0.79642797,,,,,,,,,,,,,,,,
76,263.38867,0.47335657,-15.968008,0.8003999,,,,,,,,,,,,,,,,
77,263.74026,0.4735384,-15.895817,0.8013023,,,,,,,,,,,,,,,,
78,263.841,0.4735904,-16.112448,0.7985944,,,,,,,,,,,,,,,,
79,263.58478,0.47345802,-16.618868,0.79226416,,,,,,,,,,,,,,,,
80,263.1004,0.47320724,-17.369654,0.78287935,,,,,,,,,,,,,,,,
81,262.48053,0.47288573,-18.217651,0.7722794,,,,,,,,,,,,,,,,
82,261.91156,0.4725899,-18.795677,0.76505405,,,,,,,,,,,,,,,,
83,261.4526,0.47235084,-18.499468,0.7687566,,,,,,,,,,,,,,,,
84,261.31644,0.47227973,-17.19977,0.7850029,,,,,,,,,,,,,,,,
85,261.49893,0.4723749,-15.681673,0.8039791,,,,,,,,,,,,,,,,
86,261.89685,0.47258225,-14.666272,0.8166716,,,,,,,,,,,,,,,,
87,262.4852,0.47288808,-14.349844,0.820627,,,,,,,,,,,,,,,,
88,263.15903,0.4732376,-14.589141,0.8176358,,,,,,,,,,,,,,,,
89,263.67838,0.47350633,-15.08462,0.81144226,,,,,,,,,,,,,,,,
90,263.88837,0.4736149,-15.541896,0.8057263,,,,,,,,,,,,,,,,
91,263.64996,0.47349164,-15.84446,0.80194426,,,,,,,,,,,,,,,,
92,263.10892,0.47321168,-16.065695,0.79917884,,,,,,,,,,,,,,,,
93,262.2448,0.47276327,-16.257801,0.7967775,,,,,,,,,,,,,,,,
94,261.29675,0.47226948,-16.300886,0.7962389,,,,,,,,,,,,,,,,
95,260.59537,0.4719031,-16.104977,0.7986878,,,,,,,,,,,,,,,,
96,260.31805,0.47175792,-15.854893,0.80181384,,,,,,,,,,,,,,,,
97,260.1758,0.47168347,-15.861375,0.8017328,,,,,,,,,,,,,,,,
98,260.41516,0.47180882,-16.374619,0.7953173,,,,,,,,,,,,,,,,
99,261.00696,0.47211826,-17.523825,0.7809522,,,,,,,,,,,,,,,,
100,261.62567,0.47244096,-19.125795,0.76092756,,,,,,,,,,,,,,,,
101,262.05127,0.47266254,-20.333225,0.7458347,,,,,,,,,,,,,,,,
102,261.8833,0.47257522,-20.197414,0.7475323,,,,,,,,,,,,,,,,
103,261.40564,0.47232634,-19.266825,0.7591647,,,,,,,,,,,,,,,,
104,260.71902,0.4719678,-18.495241,0.7688095,,,,,,,,,,,,,,,,
105,260.03043,0.47160724,-18.127203,0.77340996,,,,,,,,,,,,,,,,
106,259.71817,0.4714435,-17.980408,0.7752449,,,,,,,,,,,,,,,,
107,259.54086,0.47135043,-17.800123,0.7774985,,,,,,,,,,,,,,,,
108,259.4261,0.47129005,-17.555672,0.7805541,,,,,,,,,,,,,,,,
109,259.41522,0.47128436,-17.379368,0.7827579,,,,,,,,,,,,,,,,
110,259.56357,0.47136232,-17.311487,0.7836064,,,,,,,,,,,,,,,,
111,259.85397,0.4715147,-17.304352,0.7836956,,,,,,,,,,,,,,,,
112,260.20834,0.4717005,-17.344717,0.783191,,,,,,,,,,,,,,,,
113,260.46652,0.47183567,-17.405758,0.782428,,,,,,,,,,,,,,,,
114,260.68295,0.47194895,-17.371206,0.7828599,,,,,,,,,,,,,,,,
115,260.79858,0.4720094,-17.118416,0.7860198,,,,,,,,,,,,,,,,
116,260.83752,0.4720297,-16.682514,0.79146856,,,,,,,,,,,,,,,,
117,260.7595,0.47198895,-16.265512,0.7966811,,,,,,,,,,,,,,,,
118,260.72324,0.47196993,-16.08922,0.79888475,,,,,,,,,,,,,,,,
119,260.7993,0.47200978,-16.258701,0.7967662,,,,,,,,,,,,,,,,
120,260.87305,0.47204834,-16.697,0.7912875,,,,,,,,,,,,,,,,
121,260.82608,0.47202373,-17.128164,0.785898,,,,,,,,,,,,,,,,
122,260.6986,0.47195715,-17.183151,0.7852106,,,,,,,,,,,,,,,,
123,260.64783,0.47193056,-16.67987,0.79150164,,,,,,,,,,,,,,,,
124,260.68533,0.4719501,-15.750487,0.80311894,,,,,,,,,,,,,,,,
125,260.7936,0.4720068,-14.689468,0.81638163,,,,,,,,,,,,,,,,
126,260.82263,0.47202194,-13.716255,0.8285468,,,,,,,,,,,,,,,,
127,260.85245,0.47203752,-12.875612,0.8390548,,,,,,,,,,,,,,,,
128,260.9209,0.4720733,-12.096494,0.84879386,,,,,,,,,,,,,,,,
129,261.15024,0.47219306,-11.331171,0.85836035,,,,,,,,,,,,,,,,
130,261.36658,0.47230595,-10.626327,0.86717093,,,,,,,,,,,,,,,,
131,261.46985,0.47235975,-10.072876,0.87408906,,,,,,,,,,,,,,,,
132,261.53152,0.47239193,-9.7345915,0.8783176,,,,,,,,,,,,,,,,
133,261.53418,0.47239336,-9.620172,0.87974787,,,,,,,,,,,,,,,,
134,261.55396,0.47240365,-9.695707,0.8788037,,,,,,,,,,,,,,,,
135,261.52866,0.47239047,-9.914528,0.8760684,,,,,,,,,,,,,,,,
136,261.3432,0.4722937,-10.243027,0.8719622,,,,,,,,,,,,,,,,
137,261.01663,0.4721233,-10.663961,0.8667005,,,,,,,,,,,,,,,,
138,260.80954,0.47201508,-11.166457,0.8604193,,,,,,,,,,,,,,,,
139,260.57285,0.47189134,-11.721941,0.85347575,,,,,,,,,,,,,,,,
140,260.46124,0.47183296,-12.263383,0.8467077,,,,,,,,,,,,,,,,
141,260.35886,0.47177935,-12.700889,0.84123886,,,,,,,,,,,,,,,,
142,260.10922,0.4716485,-12.966365,0.8379204,,,,,,,,,,,,,,,,
143,259.90952,0.47154388,-13.039867,0.8370017,,,,,,,,,,,,,,,,
144,259.67368,0.47142017,-12.969157,0.8378855,,,,,,,,,,,,,,,,
145,259.43768,0.47129616,-12.871888,0.83910143,,,,,,,,,,,,,,,,
146,259.29828,0.4712229,-12.8654995,0.83918124,,,,,,,,,,,,,,,,
147,258.92587,0.47102702,-12.985931,0.83767587,,,,,,,,,,,,,,,,
148,258.67078,0.47089267,-13.163569,0.8354554,,,,,,,,,,,,,,,,
149,258.5234,0.47081497,-13.273423,0.83408225,,,,,,,,,,,,,,,,
150,258.47012,0.47078678,-13.222042,0.8347245,,,,,,,,,,,,,,,,
151,258.5897,0.47084984,-12.963576,0.8379553,,,,,,,,,,,,,,,,
152,258.94888,0.4710391,-12.4847765,0.84394026,,,,,,,,,,,,,,,,
153,259.44904,0.47130212,-11.865307,0.8516837,,,,,,,,,,,,,,,,
154,259.7618,0.4714664,-11.273994,0.85907507,,,,,,,,,,,,,,,,
155,259.94284,0.47156137,-10.843706,0.8644537,,,,,,,,,,,,,,,,
156,260.05966,0.47162265,-10.609218,0.8673848,,,,,,,,,,,,,,,,
157,260.21484,0.47170392,-10.5490465,0.8681369,,,,,,,,,,,,,,,,
158,260.37817,0.47178945,-10.626046,0.8671744,,,,,,,,,,,,,,,,
159,260.4805,0.47184306,-10.801339,0.86498326,,,,,,,,,,,,,,,,
160,260.6015,0.4719063,-11.059806,0.8617524,,,,,,,,,,,,,,,,
161,260.71967,0.47196814,-11.429324,0.85713345,,,,,,,,,,,,,,,,
162,260.79752,0.47200885,-11.9307375,0.8508658,,,,,,,,,,,,,,,,
163,260.96872,0.47209826,-12.516462,0.84354424,,,,,,,,,,,,,,,,
164,261.186,0.4722117,-13.113388,0.83608264,,,,,,,,,,,,,,,,
165,261.5027,0.47237688,-13.712498,0.8285938,,,,,,,,,,,,,,,,
166,261.7704,0.47251636,-14.334254,0.8208218,,,,,,,,,,,,,,,,
167,262.22238,0.47275156,-14.913986,0.81357515,,,,,,,,,,,,,,,,
168,262.4583,0.4728741,-15.311887,0.8086014,,,,,,,,,,,,,,,,
169,262.37732,0.4728321,-15.468323,0.806646,,,,,,,,,,,,,,,,
170,262.22458,0.47275272,-15.519006,0.8060124,,,,,,,,,,,,,,,,
171,262.12927,0.47270316,-15.675302,0.80405873,,,,,,,,,,,,,,,,
172,261.9489,0.47260937,-16.019684,0.79975396,,,,,,,,,,,,,,,,
173,261.78662,0.47252485,-16.452314,0.7943461,,,,,,,,,,,,,,,,
174,261.57272,0.47241336,-16.817324,0.7897835,,,,,,,,,,,,,,,,
175,261.43225,0.4723402,-17.055077,0.78681153,,,,,,,,,,,,,,,,
176,261.18625,0.4722119,-17.198608,0.7850174,,,,,,,,,,,,,,,,
177,260.88162,0.47205275,-17.307081,0.7836615,,,,,,,,,,,,,,,,
178,260.4195,0.47181106,-17.43938,0.78200775,,,,,,,,,,,,,,,,
179,260.0269,0.47160536,-17.611383,0.7798577,,,,,,,,,,,,,,,,
180,259.67865,0.4714227,-17.766666,0.77791667,,,,,,,,,,,,,,,,
181,259.44266,0.47129878,-17.8297,0.77712876,,,,,,,,,,,,,,,,
182,259.2806,0.47121364,-17.74214,0.7782233,,,,,,,,,,,,,,,,
183,259.1968,0.47116956,-17.425495,0.7821813,,,,,,,,,,,,,,,,
184,259.2458,0.47119525,-16.816345,0.7897957,,,,,,,,,,,,,,,,
185,259.72916,0.4714493,-16.033447,0.7995819,,,,,,,,,,,,,,,,
186,260.42786,0.4718155,-15.334414,0.8083198,,,,,,,,,,,,,,,,
187,261.1034,0.47216862,-14.895402,0.8138075,,,,,,,,,,,,,,,,
188,261.782,0.4725224,-14.765783,0.8154277,,,,,,,,,,,,,,,,
189,262.3294,0.47280717,-14.944574,0.81319284,,,,,,,,,,,,,,,,
190,262.6501,0.47297376,-15.403717,0.8074535,,,,,,,,,,,,,,,,
191,262.74585,0.4730234,-16.021439,0.799732,,,,,,,,,,,,,,,,
192,262.68628,0.4729925,-16.571224,0.7928597,,,,,,,,,,,,,,,,
193,262.31085,0.4727976,-16.868738,0.78914076,,,,,,,,,,,,,,,,
194,261.78207,0.4725225,-16.920435,0.7884946,,,,,,,,,,,,,,,,
195,261.34003,0.4722921,-16.842045,0.7894744,,,,,,,,,,,,,,,,
196,261.0754,0.47215402,-16.714819,0.79106474,,,,,,,,,,,,,,,,
197,261.02853,0.47212952,-16.609228,0.7923846,,,,,,,,,,,,,,,,
198,261.25433,0.4722474,-16.63269,0.79209137,,,,,,,,,,,,,,,,
199,261.5335,0.472393,-16.871244,0.78910947,,,,,,,,,,,,,,,,
200,261.87692,0.4725718,-17.308182,0.7836477,,,,,,,,,,,,,,,,
201,262.16522,0.47272182,-17.817318,0.77728355,,,,,,,,,,,,,,,,
202,262.52884,0.4729108,-18.214842,0.7723145,,,,,,,,,,,,,,,,
203,262.71317,0.4730065,-18.29332,0.7713335,,,,,,,,,,,,,,,,
204,262.89545,0.47310102,-17.866894,0.77666384,,,,,,,,,,,,,,,,
205,262.78455,0.47304353,-16.930271,0.7883716,,,,,,,,,,,,,,,,
206,262.5869,0.4729409,-15.723693,0.8034538,,,,,,,,,,,,,,,,
207,262.49115,0.47289124,-14.522055,0.8184743,,,,,,,,,,,,,,,,
208,262.21826,0.47274938,-13.463332,0.8317083,,,,,,,,,,,,,,,,
209,262.02133,0.47264704,-12.575427,0.8428072,,,,,,,,,,,,,,,,
210,261.91293,0.47259063,-11.877531,0.85153085,,,,,,,,,,,,,,,,
211,261.8272,0.47254592,-11.41451,0.85731864,,,,,,,,,,,,,,,,
212,261.8045,0.47253412,-11.19964,0.8600045,,,,,,,,,,,,,,,,
213,261.84943,0.47255754,-11.174355,0.86032057,,,,,,,,,,,,,,,,
214,261.86594,0.4725661,-11.258686,0.8592664,,,,,,,,,,,,,,,,
215,261.91122,0.47258973,-11.420046,0.85724944,,,,,,,,,,,,,,,,
216,261.94113,0.47260532,-11.659056,0.8542618,,,,,,,,,,,,,,,,
217,262.01404,0.47264317,-11.967182,0.8504102,,,,,,,,,,,,,,,,
218,262.1725,0.4727256,-12.339026,0.84576213,,,,,,,,,,,,,,,,
219,262.26663,0.47277454,-12.778512,0.8402686,,,,,,,,,,,,,,,,
220,262.32242,0.47280356,-13.239232,0.8345096,,,,,,,,,,,,,,,,
221,262.3268,0.4728058,-13.604416,0.8299448,,,,,,,,,,,,,,,,
222,262.31104,0.4727976,-13.788909,0.8276386,,,,,,,,,,,,,,,,
223,262.3368,0.47281104,-13.838044,0.82702446,,,,,,,,,,,,,,,,
224,262.17154,0.47272506,-13.886265,0.8264217,,,,,,,,,,,,,,,,
225,261.8022,0.47253296,-14.05588,0.8243015,,,,,,,,,,,,,,,,
226,261.56262,0.47240815,-14.4052515,0.81993437,,,,,,,,,,,,,,,,
227,261.31616,0.47227964,-14.909919,0.81362605,,,,,,,,,,,,,,,,
228,261.06232,0.4721472,-15.485168,0.8064354,,,,,,,,,,,,,,,,
229,260.75012,0.471984,-16.046034,0.7994246,,,,,,,,,,,,,,,,
230,260.60306,0.47190714,-16.53949,0.7932564,,,,,,,,,,,,,,,,
231,260.50055,0.47185352,-16.87747,0.7890316,,,,,,,,,,,,,,,,
232,260.46304,0.47183385,-16.869034,0.78913707,,,,,,,,,,,,,,,,
233,260.40692,0.4718045,-16.380688,0.7952414,,,,,,,,,,,,,,,,
234,260.31265,0.47175512,-15.55499,0.8055626,,,,,,,,,,,,,,,,
235,260.40588,0.47180396,-14.681607,0.8164799,,,,,,,,,,,,,,,,
236,260.52917,0.47186846,-13.963556,0.82545555,,,,,,,,,,,,,,,,
237,260.5622,0.47188577,-13.499064,0.8312617,,,,,,,,,,,,,,,,
238,260.61905,0.4719155,-13.324341,0.8334457,,,,,,,,,,,,,,,,
239,260.57553,0.4718928,-13.412307,0.8323462,,,,,,,,,,,,,,,,
240,260.5425,0.4718755,-13.68956,0.8288805,,,,,,,,,,,,,,,,
241,260.5931,0.4719019,-14.077875,0.8240266,,,,,,,,,,,,,,,,
242,260.5958,0.47190335,-14.488429,0.8188946,,,,,,,,,,,,,,,,
243,260.6025,0.47190687,-14.774166,0.81532294,,,,,,,,,,,,,,,,
244,260.60968,0.47191066,-14.772155,0.815348,,,,,,,,,,,,,,,,
245,260.55203,0.47188047,-14.454587,0.8193177,,,,,,,,,,,,,,,,
246,260.59116,0.4719009,-13.942375,0.8257203,,,,,,,,,,,,,,,,
247,260.77008,0.47199446,-13.350115,0.83312356,,,,,,,,,,,,,,,,
248,260.97858,0.4721034,-12.738582,0.84076774,,,,,,,,,,,,,,,,
249,261.33145,0.47228765,-12.173093,0.8478364,,,,,,,,,,,,,,,,
250,261.68976,0.47247437,-11.735419,0.85330725,,,,,,,,,,,,,,,,
251,261.82242,0.47254348,-11.474124,0.85657346,,,,,,,,,,,,,,,,
252,261.90112,0.4725844,-11.376158,0.85779804,,,,,,,,,,,,,,,,
253,261.92746,0.4725982,-11.400765,0.8574904,,,,,,,,,,,,,,,,
254,261.8905,0.4725789,-11.534122,0.85582346,,,,,,,,,,,,,,,,
255,261.86032,0.47256315,-11.800572,0.8524928,,,,,,,,,,,,,,,,
256,261.7126,0.47248626,-12.2181225,0.84727347,,,,,,,,,,,,,,,,
257,261.40228,0.47232452,-12.754523,0.8405684,,,,,,,,,,,,,,,,
258,261.20355,0.4722209,-13.323498,0.8334563,,,,,,,,,,,,,,,,
259,261.1022,0.472168,-13.8194,0.8272575,,,,,,,,,,,,,,,,
260,261.08212,0.47215754,-14.165094,0.8229363,,,,,,,,,,,,,,,,
261,261.17505,0.47220603,-14.323463,0.8209567,,,,,,,,,,,,,,,,
262,261.15417,0.47219512,-14.287176,0.8214103,,,,,,,,,,,,,,,,
263,261.14288,0.47218928,-14.102116,0.82372355,,,,,,,,,,,,,,,,
264,261.2234,0.47223127,-13.872259,0.82659674,,,,,,,,,,,,,,,,
265,261.24692,0.47224352,-13.686075,0.82892406,,,,,,,,,,,,,,,,
266,261.2219,0.47223043,-13.567479,0.83040655,,,,,,,,,,,,,,,,
267,261.19696,0.47221747,-13.517272,0.83103406,,,,,,,,,,,,,,,,
268,261.0112,0.47212043,-13.566499,0.83041877,,,,,,,,,,,,,,,,
269,260.76883,0.4719938,-13.7653475,0.8279332,,,,,,,,,,,,,,,,
270,260.663,0.4719385,-14.112505,0.8235937,,,,,,,,,,,,,,,,
271,260.67163,0.471943,-14.499714,0.8187536,,,,,,,,,,,,,,,,
272,260.8879,0.4720561,-14.748206,0.8156474,,,,,,,,,,,,,,,,
273,261.0608,0.47214636,-14.759276,0.8155091,,,,,,,,,,,,,,,,
274,261.17197,0.47220442,-14.608984,0.8173877,,,,,,,,,,,,,,,,
275,261.34393,0.47229415,-14.418524,0.8197684,,,,,,,,,,,,,,,,
276,261.39233,0.4723194,-14.229508,0.82213116,,,,,,,,,,,,,,,,
277,261.28204,0.47226182,-14.059039,0.824262,,,,,,,,,,,,,,,,
278,261.09537,0.4721644,-13.982301,0.82522124,,,,,,,,,,,,,,,,
279,260.87695,0.4720503,-14.1093,0.8236338,,,,,,,,,,,,,,,,
280,260.7355,0.47197643,-14.510147,0.8186232,,,,,,,,,,,,,,,,
281,260.61792,0.4719149,-15.197819,0.81002724,,,,,,,,,,,,,,,,
282,260.68005,0.4719474,-16.104162,0.79869795,,,,,,,,,,,,,,,,
283,260.71353,0.4719649,-16.954329,0.7880709,,,,,,,,,,,,,,,,
284,260.4724,0.47183883,-17.217762,0.784778,,,,,,,,,,,,,,,,
285,260.32968,0.47176403,-16.57211,0.79284865,,,,,,,,,,,,,,,,
286,260.31442,0.4717561,-15.405616,0.8074298,,,,,,,,,,,,,,,,
287,260.70233,0.47195902,-14.330328,0.8208709,,,,,,,,,,,,,,,,
288,261.27005,0.4722556,-13.662129,0.8292234,,,,,,,,,,,,,,,,
289,261.9486,0.4726091,-13.448969,0.8318879,,,,,,,,,,,,,,,,
290,262.28137,0.4727822,-13.58996,0.8301255,,,,,,,,,,,,,,,,
291,262.5358,0.4729144,-13.9188795,0.82601404,,,,,,,,,,,,,,,,
292,262.75314,0.4730272,-14.260329,0.8217459,,,,,,,,,,,,,,,,
293,262.9032,0.47310507,-14.472533,0.81909335,,,,,,,,,,,,,,,,
294,262.99875,0.47315454,-14.526433,0.8184196,,,,,,,,,,,,,,,,
295,263.08234,0.47319788,-14.526326,0.8184209,,,,,,,,,,,,,,,,
296,263.01178,0.47316128,-14.53352,0.818331,,,,,,,,,,,,,,,,
297,263.02808,0.47316977,-14.408463,0.8198942,,,,,,,,,,,,,,,,
298,262.85986,0.47308254,-13.963507,0.82545614,,,,,,,,,,,,,,,,
299,262.65817,0.4729779,-13.22184,0.834727,,,,,,,,,,,,,,,,
300,262.53223,0.47291258,-12.34556,0.8456805,,,,,,,,,,,,,,,,
301,262.41153,0.47284988,-11.4413595,0.856983,,,,,,,,,,,,,,,,
302,262.25446,0.47276822,-10.561026,0.86798716,,,,,,,,,,,,,,,,
303,262.0213,0.47264695,-9.753483,0.87808144,,,,,,,,,,,,,,,,
304,261.79263,0.47252798,-9.069493,0.8866313,,,,,,,,,,,,,,,,
305,261.70023,0.47247988,-8.549242,0.8931345,,,,,,,,,,,,,,,,
306,261.61972,0.4724379,-8.20917,0.89738536,,,,,,,,,,,,,,,,
307,261.5855,0.47242004,-8.034541,0.89956826,,,,,,,,,,,,,,,,
308,261.5675,0.47241068,-7.9840374,0.90019953,,,,,,,,,,,,,,,,
309,261.59906,0.47242716,-8.01167,0.8998541,,,,,,,,,,,,,,,,
310,261.67935,0.47246897,-8.102227,0.8987222,,,,,,,,,,,,,,,,
311,261.73044,0.47249556,-8.281593,0.8964801,,,,,,,,,,,,,,,,
312,261.68427,0.4724715,-8.575052,0.89281183,,,,,,,,,,,,,,,,
313,261.49963,0.47237533,-8.963754,0.8879531,,,,,,,,,,,,,,,,
314,261.41293,0.47233012,-9.402428,0.88246965,,,,,,,,,,,,,,,,
315,261.3365,0.47229028,-9.867403,0.8766575,,,,,,,,,,,,,,,,
316,261.12265,0.47217864,-10.359598,0.87050503,,,,,,,,,,,,,,,,
317,260.8755,0.4720495,-10.870391,0.8641201,,,,,,,,,,,,,,,,
318,260.44998,0.47182703,-11.386965,0.8576629,,,,,,,,,,,,,,,,
319,260.0732,0.47162968,-11.925159,0.8509355,,,,,,,,,,,,,,,,
320,259.87946,0.4715281,-12.501492,0.84373134,,,,,,,,,,,,,,,,
321,259.7609,0.47146586,-13.060805,0.8367399,,,,,,,,,,,,,,,,
322,259.6979,0.47143286,-13.468862,0.83163923,,,,,,,,,,,,,,,,
323,259.71243,0.47144043,-13.611717,0.82985353,,,,,,,,,,,,,,,,
324,259.81354,0.4714935,-13.4878235,0.8314022,,,,,,,,,,,,,,,,
325,259.98877,0.47158542,-13.173563,0.8353305,,,,,,,,,,,,,,,,
326,260.41245,0.47180736,-12.741056,0.8407368,,,,,,,,,,,,,,,,
327,260.88135,0.47205266,-12.234114,0.84707355,,,,,,,,,,,,,,,,
328,261.1856,0.4722115,-11.686353,0.8539206,,,,,,,,,,,,,,,,
329,261.4197,0.4723336,-11.147889,0.8606514,,,,,,,,,,,,,,,,
330,261.5718,0.4724129,-10.6830845,0.86646146,,,,,,,,,,,,,,,,
331,261.74872,0.4725051,-10.3328,0.87084,,,,,,,,,,,,,,,,
332,261.8826,0.47257486,-10.105584,0.87368023,,,,,,,,,,,,,,,,
333,261.92703,0.47259793,-10.006412,0.8749199,,,,,,,,,,,,,,,,
334,261.93616,0.4726027,-10.0427065,0.8744662,,,,,,,,,,,,,,,,
335,261.91946,0.47259396,-10.20369,0.87245387,,,,,,,,,,,,,,,,
336,261.91113,0.47258964,-10.459479,0.8692565,,,,,,,,,,,,,,,,
337,261.90018,0.47258395,-10.787921,0.865151,,,,,,,,,,,,,,,,
338,261.91183,0.47259,-11.195883,0.86005145,,,,,,,,,,,,,,,,
339,261.86487,0.47256556,-11.713446,0.8535819,,,,,,,,,,,,,,,,
340,261.8737,0.47257015,-12.362065,0.8454742,,,,,,,,,,,,,,,,
341,261.9321,0.47260052,-13.1256895,0.8359289,,,,,,,,,,,,,,,,
342,261.9753,0.47262305,-13.966587,0.82541764,,,,,,,,,,,,,,,,
343,262.09152,0.47268352,-14.878265,0.8140217,,,,,,,,,,,,,,,,
344,262.37317,0.47282997,-15.890577,0.80136776,,,,,,,,,,,,,,,,
345,262.78482,0.47304362,-16.965204,0.78793496,,,,,,,,,,,,,,,,
346,263.26004,0.47328997,-17.879622,0.77650476,,,,,,,,,,,,,,,,
347,263.7215,0.47352868,-18.315409,0.77105737,,,,,,,,,,,,,,,,
348,263.991,0.4736679,-18.144903,0.7731887,,,,,,,,,,,,,,,,
349,264.14127,0.4737455,-17.523195,0.7809601,,,,,,,,,,,,,,,,
350,264.026,0.47368592,-16.713846,0.7910769,,,,,,,,,,,,,,,,
351,263.76068,0.47354895,-15.954787,0.8005651,,,,,,,,,,,,,,,,
352,263.30563,0.47331357,-15.392157,0.80759805,,,,,,,,,,,,,,,,
353,262.8652,0.4730853,-15.081446,0.81148195,,,,,,,,,,,,,,,,
354,262.60675,0.47295123,-15.045544,0.8119307,,,,,,,,,,,,,,,,
355,262.57016,0.47293222,-15.295487,0.8088064,,,,,,,,,,,,,,,,
356,262.64514,0.47297117,-15.793916,0.80257607,,,,,,,,,,,,,,,,
357,262.85052,0.47307774,-16.431425,0.79460716,,,,,,,,,,,,,,,,
358,263.09933,0.4732067,-17.049646,0.7868794,,,,,,,,,,,,,,,,
359,263.2624,0.47329113,-17.509874,0.78112656,,,,,,,,,,,,,,,,
360,263.57816,0.4734545,-17.78414,0.7776983,,,,,,,,,,,,,,,,
361,263.99506,0.47367007,-17.975126,0.77531093,,,,,,,,,,,,,,,,
362,264.23532,0.47379395,-18.247295,0.7719088,,,,,,,,,,,,,,,,
363,264.4249,0.47389174,-18.750576,0.7656178,,,,,,,,,,,,,,,,
364,264.60178,0.47398293,-19.502838,0.7562145,,,,,,,,,,,,,,,,
365,264.43225,0.4738956,-20.132717,0.748341,,,,,,,,,,,,,,,,
366,264.16278,0.47375655,-19.902708,0.7512162,,,,,,,,,,,,,,,,
367,263.60654,0.4734692,-18.611012,0.76736236,,,,,,,,,,,,,,,,
368,263.03287,0.47317228,-16.993519,0.787581,,,,,,,,,,,,,,,,
369,262.75232,0.47302675,-15.672846,0.8040894,,,,,,,,,,,,,,,,
370,262.55795,0.47292593,-14.774973,0.81531286,,,,,,,,,,,,,,,,
371,262.46268,0.47287646,-14.230289,0.8221214,,,,,,,,,,,,,,,,
372,262.40842,0.47284824,-13.970572,0.8253678,,,,,,,,,,,,,,,,
373,262.36545,0.47282588,-13.963492,0.8254564,,,,,,,,,,,,,,,,
374,262.21457,0.4727475,-14.174735,0.8228158,,,,,,,,,,,,,,,,
375,261.98972,0.47263062,-14.533759,0.818328,,,,,,,,,,,,,,,,
376,261.8002,0.47253194,-14.948717,0.81314105,,,,,,,,,,,,,,,,
377,261.6035,0.4724295,-15.365467,0.80793166,,,,,,,,,,,,,,,,
378,261.39127,0.47231886,-15.789567,0.8026304,,,,,,,,,,,,,,,,
379,261.14722,0.4721915,-16.221355,0.79723305,,,,,,,,,,,,,,,,
380,260.9644,0.472096,-16.599472,0.7925066,,,,,,,,,,,,,,,,
381,260.9049,0.4720649,-16.850416,0.7893698,,,,,,,,,,,,,,,,
382,260.99304,0.47211096,-16.93327,0.78833413,,,,,,,,,,,,,,,,
383,261.12234,0.47217855,-16.807547,0.78990567,,,,,,,,,,,,,,,,
384,261.15506,0.47219557,-16.447344,0.7944082,,,,,,,,,,,,,,,,
385,261.2477,0.47224396,-15.906148,0.80117315,,,,,,,,,,,,,,,,
386,261.2477,0.47224396,-15.307361,0.808658,,,,,,,,,,,,,,,,
387,261.25204,0.4722461,-14.760138,0.8154983,,,,,,,,,,,,,,,,
388,261.2847,0.47226316,-14.298144,0.8212732,,,,,,,,,,,,,,,,
389,261.25342,0.47224686,-13.896957,0.82628804,,,,,,,,,,,,,,,,
390,261.2575,0.472249,-13.535821,0.8308022,,,,,,,,,,,,,,,,
391,261.26425,0.47225252,-13.232965,0.83458793,,,,,,,,,,,,,,,,
392,261.18994,0.47221377,-13.024986,0.83718765,,,,,,,,,,,,,,,,
393,261.03302,0.47213188,-12.93145,0.83835685,,,,,,,,,,,,,,,,
394,261.04208,0.47213656,-12.943455,0.8382068,,,,,,,,,,,,,,,,
395,261.01083,0.47212023,-13.037711,0.8370286,,,,,,,,,,,,,,,,
396,261.20245,0.47222027,-13.192067,0.83509916,,,,,,,,,,,,,,,,
397,261.37048,0.47230795,-13.388982,0.8326377,,,,,,,,,,,,,,,,
398,261.47568,0.47236282,-13.6179905,0.8297751,,,,,,,,,,,,,,,,
399,261.66867,0.47246337,-13.8880825,0.82639897,,,,,,,,,,,,,,,,
400,262.09146,0.47268352,-14.232815,0.8220898,,,,,,,,,,,,,,,,
401,262.47665,0.47288367,-14.681234,0.8164846,,,,,,,,,,,,,,,,
402,262.82248,0.47306317,-15.201905,0.8099762,,,,,,,,,,,,,,,,
403,263.23328,0.473276,-15.673505,0.8040812,,,,,,,,,,,,,,,,
404,263.41083,0.47336793,-15.941581,0.8007302,,,,,,,,,,,,,,,,
405,263.36877,0.4733463,-15.937064,0.80078673,,,,,,,,,,,,,,,,
406,263.24207,0.4732806,-15.731911,0.8033511,,,,,,,,,,,,,,,,
407,263.02148,0.47316635,-15.463677,0.80670404,,,,,,,,,,,,,,,,
408,262.80817,0.47305578,-15.251161,0.8093605,,,,,,,,,,,,,,,,
409,262.553,0.4729233,-15.190265,0.81012166,,,,,,,,,,,,,,,,
410,262.58698,0.47294098,-15.361094,0.8079863,,,,,,,,,,,,,,,,
411,262.9224,0.47311497,-15.790581,0.8026177,,,,,,,,,,,,,,,,
412,263.33276,0.47332764,-16.410051,0.79487437,,,,,,,,,,,,,,,,
413,263.79834,0.47356832,-17.071163,0.7866105,,,,,,,,,,,,,,,,
414,263.9424,0.47364277,-17.622795,0.77971506,,,,,,,,,,,,,,,,
415,263.81076,0.47357482,-17.96765,0.7754044,,,,,,,,,,,,,,,,
416,263.44745,0.47338694,-18.037058,0.7745368,,,,,,,,,,,,,,,,
417,262.81592,0.47305983,-17.794508,0.77756864,,,,,,,,,,,,,,,,
418,262.31616,0.4728003,-17.302677,0.78371656,,,,,,,,,,,,,,,,
419,261.851,0.47255835,-16.70842,0.7911447,,,,,,,,,,,,,,,,
420,261.47028,0.47236001,-16.158028,0.79802465,,,,,,,,,,,,,,,,
421,261.25922,0.4722499,-15.752759,0.8030905,,,,,,,,,,,,,,,,
422,261.18277,0.47221,-15.54823,0.80564713,,,,,,,,,,,,,,,,
423,261.33792,0.472291,-15.534312,0.80582106,,,,,,,,,,,,,,,,
424,261.54538,0.47239923,-15.612803,0.80483997,,,,,,,,,,,,,,,,
425,261.8331,0.472549,-15.632866,0.80458915,,,,,,,,,,,,,,,,
426,262.07428,0.47267452,-15.474226,0.8065722,,,,,,,,,,,,,,,,
427,262.2719,0.47277734,-15.118381,0.81102026,,,,,,,,,,,,,,,,
428,262.35822,0.4728221,-14.649702,0.81687874,,,,,,,,,,,,,,,,
429,262.3741,0.4728304,-14.199294,0.8225088,,,,,,,,,,,,,,,,
430,262.4877,0.47288942,-13.8787565,0.82651556,,,,,,,,,,,,,,,,
431,262.45557,0.47287276,-13.7398,0.8282525,,,,,,,,,,,,,,,,
432,262.45267,0.4728712,-13.776116,0.82779855,,,,,,,,,,,,,,,,
433,262.37323,0.47282997,-13.957412,0.8255323,,,,,,,,,,,,,,,,
434,262.31448,0.4727995,-14.265651,0.82167935,,,,,,,,,,,,,,,,
435,262.26343,0.47277293,-14.680899,0.81648874,,,,,,,,,,,,,,,,
436,262.14276,0.4727101,-15.112431,0.81109464,,,,,,,,,,,,,,,,
437,262.1337,0.4727055,-15.374579,0.80781776,,,,,,,,,,,,,,,,
438,262.15448,0.47271624,-15.317165,0.80853546,,,,,,,,,,,,,,,,
439,261.96695,0.47261873,-14.979076,0.81276155,,,,,,,,,,,,,,,,
440,261.74582,0.47250357,-14.523068,0.81846166,,,,,,,,,,,,,,,,
441,261.48557,0.47236794,-14.066076,0.82417405,,,,,,,,,,,,,,,,
442,261.1019,0.47216782,-13.661459,0.82923174,,,,,,,,,,,,,,,,
443,260.8173,0.47201923,-13.362987,0.83296263,,,,,,,,,,,,,,,,
444,260.641,0.47192696,-13.236969,0.83453786,,,,,,,,,,,,,,,,
445,260.58105,0.4718956,-13.340139,0.83324826,,,,,,,,,,,,,,,,
446,260.662,0.47193795,-13.693476,0.82883155,,,,,,,,,,,,,,,,
447,260.91336,0.47206932,-14.255929,0.8218009,,,,,,,,,,,,,,,,
448,261.28864,0.47226533,-14.92615,0.81342316,,,,,,,,,,,,,,,,
449,261.76218,0.47251213,-15.619848,0.8047519,,,,,,,,,,,,,,,,
450,262.03104,0.47265208,-16.323532,0.79595584,,,,,,,,,,,,,,,,
451,261.9804,0.47262567,-16.957773,0.7880278,,,,,,,,,,,,,,,,
452,261.80643,0.4725352,-17.221241,0.7847345,,,,,,,,,,,,,,,,
453,261.58664,0.47242066,-16.858349,0.78927064,,,,,,,,,,,,,,,,
454,261.37817,0.472312,-16.08372,0.79895353,,,,,,,,,,,,,,,,
455,261.19412,0.47221595,-15.401313,0.80748355,,,,,,,,,,,,,,,,
456,261.1482,0.47219205,-15.167192,0.8104101,,,,,,,,,,,,,,,,
457,261.2088,0.4722236,-15.5021715,0.80622286,,,,,,,,,,,,,,,,
458,261.29196,0.47226703,-16.352612,0.79559237,,,,,,,,,,,,,,,,
459,261.3633,0.47230425,-17.507858,0.7811518,,,,,,,,,,,,,,,,
460,261.50784,0.47237957,-18.635605,0.7670549,,,,,,,,,,,,,,,,
461,261.69452,0.4724769,-19.468884,0.75663894,,,,,,,,,,,,,,,,
462,261.85205,0.4725589,-19.921055,0.7509868,,,,,,,,,,,,,,,,
463,261.92667,0.47259775,-19.820538,0.7522433,,,,,,,,,,,,,,,,
464,261.8166,0.47254044,-18.92907,0.7633866,,,,,,,,,,,,,,,,
465,261.58835,0.47242156,-17.481836,0.78147703,,,,,,,,,,,,,,,,
466,261.4608,0.47235507,-16.04601,0.7994249,,,,,,,,,,,,,,,,
467,261.43558,0.47234192,-14.916568,0.8135429,,,,,,,,,,,,,,,,
468,261.47406,0.472362,-14.105741,0.82367826,,,,,,,,,,,,,,,,
469,261.51456,0.47238308,-13.557446,0.83053195,,,,,,,,,,,,,,,,
470,261.64877,0.47245312,-13.229431,0.8346321,,,,,,,,,,,,,,,,
471,261.7228,0.4724916,-13.085614,0.83642983,,,,,,,,,,,,,,,,
472,261.81216,0.47253817,-13.084771,0.8364403,,,,,,,,,,,,,,,,
473,261.9117,0.47259,-13.197847,0.8350269,,,,,,,,,,,,,,,,
474,261.91956,0.47259405,-13.421778,0.83222777,,,,,,,,,,,,,,,,
475,261.9616,0.47261593,-13.76012,0.8279985,,,,,,,,,,,,,,,,
476,261.9965,0.47263405,-14.195388,0.8225577,,,,,,,,,,,,,,,,
477,261.93002,0.47259954,-14.68715,0.81641066,,,,,,,,,,,,,,,,
478,261.86075,0.47256342,-15.174699,0.81031626,,,,,,,,,,,,,,,,
479,261.67657,0.47246754,-15.556532,0.80554336,,,,,,,,,,,,,,,,
480,261.3545,0.47229967,-15.69616,0.80379796,,,,,,,,,,,,,,,,
481,261.0701,0.47215125,-15.517553,0.8060306,,,,,,,,,,,,,,,,
482,260.6936,0.47195452,-15.094813,0.8113148,,,,,,,,,,,,,,,,
483,260.32474,0.4717614,-14.593958,0.8175755,,,,,,,,,,,,,,,,
484,260.11362,0.47165084,-14.144637,0.823192,,,,,,,,,,,,,,,,
485,260.11334,0.47165075,-13.791849,0.8276019,,,,,,,,,,,,,,,,
486,260.3225,0.47176024,-13.5293455,0.83088315,,,,,,,,,,,,,,,,
487,260.6794,0.47194713,-13.350251,0.8331219,,,,,,,,,,,,,,,,
488,261.04617,0.4721387,-13.275801,0.8340525,,,,,,,,,,,,,,,,
489,261.30603,0.47227442,-13.331939,0.8333508,,,,,,,,,,,,,,,,
490,261.54904,0.47240102,-13.485684,0.83142895,,,,,,,,,,,,,,,,
491,261.86984,0.47256818,-13.620787,0.82974017,,,,,,,,,,,,,,,,
492,261.97107,0.47262082,-13.622113,0.8297236,,,,,,,,,,,,,,,,
493,262.13162,0.47270435,-13.49139,0.8313576,,,,,,,,,,,,,,,,
494,262.38797,0.47283763,-13.328,0.8334,,,,,,,,,,,,,,,,
495,262.63818,0.47296757,-13.213091,0.83483636,,,,,,,,,,,,,,,,
496,262.77402,0.47303802,-12.859654,0.8392543,,,,,,,,,,,,,,,,
497,262.4208,0.47285464,-10.9865465,0.86266816,,,,,,,,,,,,,,,,
498,262.55954,0.47292674,-7.5167747,0.9060403,,,,,,,,,,,,,,,,
499,262.74713,0.47302413,-4.4319196,0.944601,,,,,,,,,,,,,,,,
500,262.86603,0.4730857,-2.7058897,0.9661764,,,,,,,,,,,,,,,,
501,262.8851,0.4730957,-2.1208732,0.9734891,,,,,,,,,,,,,,,,
502,262.90463,0.4731058,-2.1981883,0.9725226,,,,,,,,,,,,,,,,
503,262.85654,0.4730808,-2.5121787,0.96859777,,,,,,,,,,,,,,,,
504,262.7955,0.4730492,-2.8480177,0.96439976,,,,,,,,,,,,,,,,
505,262.65283,0.47297513,-3.1694512,0.96038187,,,,,,,,,,,,,,,,
506,262.3774,0.4728321,-3.553048,0.9555869,,,,,,,,,,,,,,,,
507,262.02576,0.47264928,-4.091491,0.94885635,,,,,,,,,,,,,,,,
508,261.63068,0.47244364,-4.767928,0.9404009,,,,,,,,,,,,,,,,
509,261.14694,0.47219133,-5.519694,0.9310038,,,,,,,,,,,,,,,,
510,260.7145,0.47196543,-6.385425,0.92018217,,,,,,,,,,,,,,,,
511,260.19183,0.47169185,-7.3810315,0.90773714,,,,,,,,,,,,,,,,
512,259.92065,0.47154975,-8.104478,0.89869404,,,,,,,,,,,,,,,,
513,259.9585,0.47156957,-7.9072595,0.9011593,,,,,,,,,,,,,,,,
514,260.5322,0.4718701,-6.8733354,0.9140833,,,,,,,,,,,,,,,,
515,261.19873,0.47221836,-5.750165,0.92812294,,,,,,,,,,,,,,,,
516,261.64542,0.4724513,-4.9819694,0.93772537,,,,,,,,,,,,,,,,
517,262.13702,0.47270712,-4.5863185,0.942671,,,,,,,,,,,,,,,,
518,262.52222,0.47290736,-4.4058414,0.944927,,,,,,,,,,,,,,,,
519,262.7637,0.4730327,-4.2868237,0.9464147,,,,,,,,,,,,,,,,
520,262.98984,0.47314993,-4.228795,0.94714004,,,,,,,,,,,,,,,,
521,263.10272,0.47320843,-4.3249636,0.94593793,,,,,,,,,,,,,,,,
522,263.051,0.47318166,-4.485926,0.9439259,,,,,,,,,,,,,,,,
523,262.88165,0.4730939,-4.5684767,0.94289404,,,,,,,,,,,,,,,,
524,262.6974,0.4729983,-4.8044887,0.9399439,,,,,,,,,,,,,,,,
525,262.5345,0.47291377,-5.4675565,0.9316555,,,,,,,,,,,,,,,,
526,262.24277,0.4727622,-6.098901,0.92376375,,,,,,,,,,,,,,,,
527,262.40793,0.47284797,-5.9888906,0.9251389,,,,,,,,,,,,,,,,
528,262.5202,0.4729063,-5.2873635,0.933908,,,,,,,,,,,,,,,,
529,263.04605,0.47317904,-4.389126,0.94513595,,,,,,,,,,,,,,,,
530,263.39352,0.47335908,-3.3183923,0.9585201,,,,,,,,,,,,,,,,
531,263.52948,0.47342938,-2.2913358,0.9713583,,,,,,,,,,,,,,,,
532,263.11514,0.4732149,-1.582955,0.98021305,,,,,,,,,,,,,,,,
533,262.6494,0.4729734,-1.1823399,0.98522073,,,,,,,,,,,,,,,,
534,262.3719,0.47282922,-1.0311246,0.987111,,,,,,,,,,,,,,,,
535,262.07614,0.4726755,-1.2256607,0.9846792,,,,,,,,,,,,,,,,
536,261.8039,0.47253385,-1.8050011,0.9774375,,,,,,,,,,,,,,,,
537,261.61618,0.47243607,-2.5677645,0.96790296,,,,,,,,,,,,,,,,
538,261.54297,0.47239786,-3.3126848,0.95859146,,,,,,,,,,,,,,,,
539,261.55536,0.47240436,-4.103337,0.9487083,,,,,,,,,,,,,,,,
540,261.6441,0.47245058,-5.0243683,0.9371954,,,,,,,,,,,,,,,,
541,261.74805,0.47250473,-5.8263636,0.92717046,,,,,,,,,,,,,,,,
542,261.9962,0.47263387,-6.1886163,0.9226423,,,,,,,,,,,,,,,,
543,262.2417,0.47276166,-6.114312,0.9235711,,,,,,,,,,,,,,,,
544,262.3413,0.47281337,-5.603533,0.92995584,,,,,,,,,,,,,,,,
545,262.13953,0.4727085,-4.458852,0.94426435,,,,,,,,,,,,,,,,
546,261.62207,0.47243914,-2.8145554,0.96481806,,,,,,,,,,,,,,,,
547,260.77484,0.47199696,-1.146281,0.98567146,,,,,,,,,,,,,,,,
548,260.1381,0.47166365,0.23694587,1.0029619,,,,,,,,,,,,,,,,
549,259.71808,0.4714434,1.2442199,1.0155528,,,,,,,,,,,,,,,,
550,259.43994,0.47129735,1.8332071,1.0229151,,,,,,,,,,,,,,,,
551,259.2454,0.47119507,2.0040443,1.0250505,,,,,,,,,,,,,,,,
552,259.0462,0.47109026,1.8568188,1.0232103,,,,,,,,,,,,,,,,
553,258.95294,0.47104126,1.5487504,1.0193594,,,,,,,,,,,,,,,,
554,258.9915,0.47106153,1.1833142,1.0147914,,,,,,,,,,,,,,,,
555,258.9115,0.47101936,0.7918258,1.0098978,,,,,,,,,,,,,,,,
556,259.1056,0.47112155,0.4220411,1.0052755,,,,,,,,,,,,,,,,
557,259.43384,0.4712942,0.16505411,1.0020632,,,,,,,,,,,,,,,,
558,259.8328,0.4715037,0.023703907,1.0002964,,,,,,,,,,,,,,,,
559,260.2554,0.4717252,-0.19573407,0.99755335,,,,,,,,,,,,,,,,
560,260.8574,0.47204012,-0.7694477,0.9903819,,,,,,,,,,,,,,,,
561,261.40384,0.4723254,-1.8009268,0.9774884,,,,,,,,,,,,,,,,
562,261.8299,0.47254735,-3.0106635,0.9623667,,,,,,,,,,,,,,,,
563,262.2003,0.47274002,-3.8723137,0.9515961,,,,,,,,,,,,,,,,
564,262.4472,0.47286835,-4.2117405,0.94735324,,,,,,,,,,,,,,,,
565,262.32068,0.47280264,-4.324876,0.94593906,,,,,,,,,,,,,,,,
566,261.80304,0.4725334,-4.411789,0.94485265,,,,,,,,,,,,,,,,
567,260.94827,0.47208753,-4.4209538,0.9447381,,,,,,,,,,,,,,,,
568,260.4052,0.4718037,-4.327281,0.94590896,,,,,,,,,,,,,,,,
569,260.16812,0.47167942,-4.1970243,0.9475372,,,,,,,,,,,,,,,,
570,260.32095,0.47175953,-4.0858684,0.9489266,,,,,,,,,,,,,,,,
571,260.70068,0.47195822,-3.9947271,0.9500659,,,,,,,,,,,,,,,,
572,261.37808,0.4723119,-3.8588536,0.95176435,,,,,,,,,,,,,,,,
573,262.06512,0.47266975,-3.5941353,0.9550733,,,,,,,,,,,,,,,,
574,262.8438,0.47307426,-3.221022,0.95973724,,,,,,,,,,,,,,,,
575,263.4761,0.47340178,-2.8943067,0.9638212,,,,,,,,,,,,,,,,
576,263.94055,0.47364184,-2.783685,0.96520394,,,,,,,,,,,,,,,,
577,264.0015,0.4736733,-2.974842,0.96281445,,,,,,,,,,,,,,,,
578,263.5704,0.47345054,-3.4672604,0.95665926,,,,,,,,,,,,,,,,
579,263.01492,0.47316292,-4.2033496,0.94745815,,,,,,,,,,,,,,,,
580,262.37393,0.47283033,-5.021795,0.93722755,,,,,,,,,,,,,,,,
581,261.62817,0.4724423,-5.459906,0.9317512,,,,,,,,,,,,,,,,
582,260.86206,0.47204247,-4.906393,0.9386701,,,,,,,,,,,,,,,,
583,260.6167,0.47191423,-3.4753466,0.95655817,,,,,,,,,,,,,,,,
584,260.8699,0.4720467,-2.0007887,0.9749901,,,,,,,,,,,,,,,,
585,261.4856,0.47236794,-1.092758,0.9863405,,,,,,,,,,,,,,,,
586,262.27814,0.4727806,-0.83550256,0.9895562,,,,,,,,,,,,,,,,
587,262.9845,0.47314715,-1.0110426,0.98736197,,,,,,,,,,,,,,,,
588,263.72726,0.47353163,-1.3109062,0.98361367,,,,,,,,,,,,,,,,
589,263.87323,0.47360706,-1.5387688,0.9807654,,,,,,,,,,,,,,,,
590,263.53784,0.4734337,-1.7083861,0.97864515,,,,,,,,,,,,,,,,
591,262.95914,0.47313398,-1.9030584,0.9762118,,,,,,,,,,,,,,,,
592,262.1347,0.47270596,-2.056215,0.9742973,,,,,,,,,,,,,,,,
593,261.4428,0.4723457,-1.9875679,0.9751554,,,,,,,,,,,,,,,,
594,260.95148,0.47208923,-1.7106546,0.97861683,,,,,,,,,,,,,,,,
595,260.68668,0.47195083,-1.5122766,0.98109657,,,,,,,,,,,,,,,,
596,260.49222,0.47184908,-1.7093724,0.97863287,,,,,,,,,,,,,,,,
597,260.56528,0.47188738,-2.4767606,0.9690405,,,,,,,,,,,,,,,,
598,260.78192,0.47200066,-3.7461386,0.9531733,,,,,,,,,,,,,,,,
599,261.07355,0.47215304,-4.9723034,0.9378462,,,,,,,,,,,,,,,,
600,261.44577,0.47234723,-5.3585553,0.9330181,,,,,,,,,,,,,,,,
601,261.7208,0.4724906,-4.914091,0.93857384,,,,,,,,,,,,,,,,
602,261.61978,0.4724379,-4.377708,0.94527864,,,,,,,,,,,,,,,,
603,260.99014,0.47210944,-4.190457,0.9476193,,,,,,,,,,,,,,,,
604,260.4261,0.47181457,-4.2715325,0.94660586,,,,,,,,,,,,,,,,
605,259.91486,0.47154668,-4.316431,0.9460446,,,,,,,,,,,,,,,,
606,259.65323,0.47140944,-4.1244454,0.9484444,,,,,,,,,,,,,,,,
607,259.3971,0.47127482,-3.7925277,0.9525934,,,,,,,,,,,,,,,,
608,259.3538,0.4712521,-3.5635734,0.9554553,,,,,,,,,,,,,,,,
609,259.45914,0.47130743,-3.5612469,0.9554844,,,,,,,,,,,,,,,,
610,259.68637,0.47142676,-3.724107,0.95344865,,,,,,,,,,,,,,,,
611,259.9784,0.47157994,-3.8969631,0.951288,,,,,,,,,,,,,,,,
612,260.24094,0.47171754,-3.9356606,0.95080423,,,,,,,,,,,,,,,,
613,260.52118,0.4718643,-3.7680387,0.9528995,,,,,,,,,,,,,,,,
614,260.77313,0.47199607,-3.4402814,0.9569965,,,,,,,,,,,,,,,,
615,260.91324,0.47206932,-3.1031942,0.9612101,,,,,,,,,,,,,,,,
616,260.93344,0.47207987,-2.9098065,0.9636274,,,,,,,,,,,,,,,,
617,260.8778,0.47205076,-2.940093,0.96324885,,,,,,,,,,,,,,,,
618,260.89975,0.4720622,-3.1858935,0.96017635,,,,,,,,,,,,,,,,
619,260.9075,0.47206634,-3.5316193,0.9558548,,,,,,,,,,,,,,,,
620,260.83398,0.47202787,-3.7396948,0.9532538,,,,,,,,,,,,,,,,
621,260.60495,0.47190812,-3.5637083,0.95545363,,,,,,,,,,,,,,,,
622,260.51086,0.47185892,-2.9238157,0.9634523,,,,,,,,,,,,,,,,
623,260.48407,0.47184485,-1.9571143,0.97553605,,,,,,,,,,,,,,,,
624,260.59995,0.4719055,-0.9036983,0.9887038,,,,,,,,,,,,,,,,
625,260.7264,0.47197166,0.06513266,1.0008142,,,,,,,,,,,,,,,,
626,260.7537,0.47198588,0.9294175,1.0116177,,,,,,,,,,,,,,,,
627,260.9935,0.47211123,1.7520219,1.0219003,,,,,,,,,,,,,,,,
628,261.18533,0.47221142,2.5511189,1.031889,,,,,,,,,,,,,,,,
629,261.24112,0.47224054,3.2592123,1.0407401,,,,,,,,,,,,,,,,
630,261.2764,0.47225893,3.7850227,1.0473127,,,,,,,,,,,,,,,,
631,261.323,0.47228324,4.07908,1.0509886,,,,,,,,,,,,,,,,
632,261.4102,0.47232866,4.1467657,1.0518346,,,,,,,,,,,,,,,,
633,261.49744,0.47237417,4.025084,1.0503136,,,,,,,,,,,,,,,,
634,261.51248,0.472382,3.755756,1.046947,,,,,,,,,,,,,,,,
635,261.31253,0.47227776,3.3741603,1.042177,,,,,,,,,,,,,,,,
636,261.0814,0.4721571,2.9097211,1.0363715,,,,,,,,,,,,,,,,
637,260.91867,0.47207212,2.3961473,1.0299518,,,,,,,,,,,,,,,,
638,260.7251,0.47197092,1.8885932,1.0236074,,,,,,,,,,,,,,,,
639,260.59506,0.471903,1.4560599,1.0182008,,,,,,,,,,,,,,,,
640,260.4395,0.4718216,1.1491368,1.0143642,,,,,,,,,,,,,,,,
641,260.25275,0.47172377,0.9911083,1.0123888,,,,,,,,,,,,,,,,
642,260.04605,0.47161543,0.97527474,1.0121909,,,,,,,,,,,,,,,,
643,259.75858,0.4714647,1.0343117,1.0129288,,,,,,,,,,,,,,,,
644,259.46655,0.4713113,1.0518322,1.013148,,,,,,,,,,,,,,,,
645,259.34564,0.4712478,0.9428013,1.011785,,,,,,,,,,,,,,,,
646,259.04434,0.47108936,0.72422457,1.0090528,,,,,,,,,,,,,,,,
647,258.7571,0.4709381,0.51238763,1.0064049,,,,,,,,,,,,,,,,
648,258.70105,0.4709086,0.4337474,1.0054219,,,,,,,,,,,,,,,,
649,258.74036,0.47092932,0.5442262,1.0068028,,,,,,,,,,,,,,,,
650,258.84192,0.47098276,0.8500479,1.0106256,,,,,,,,,,,,,,,,
651,259.07526,0.4711056,1.3249773,1.0165622,,,,,,,,,,,,,,,,
652,259.3708,0.47126102,1.8718519,1.0233982,,,,,,,,,,,,,,,,
653,259.66245,0.4714142,2.3530838,1.0294136,,,,,,,,,,,,,,,,
654,259.83752,0.47150615,2.6809437,1.0335118,,,,,,,,,,,,,,,,
655,260.00983,0.4715965,2.8440342,1.0355505,,,,,,,,,,,,,,,,
656,260.18524,0.47168842,2.8706965,1.0358837,,,,,,,,,,,,,,,,
657,260.4157,0.4718091,2.7946415,1.034933,,,,,,,,,,,,,,,,
658,260.4856,0.4718457,2.6357598,1.032947,,,,,,,,,,,,,,,,
659,260.5865,0.47189847,2.3839948,1.0297999,,,,,,,,,,,,,,,,
660,260.6218,0.47191694,2.0104682,1.0251309,,,,,,,,,,,,,,,,
661,260.67157,0.471943,1.510766,1.0188845,,,,,,,,,,,,,,,,
662,260.8253,0.47202337,0.91911286,1.0114889,,,,,,,,,,,,,,,,
663,261.04486,0.47213808,0.2620353,1.0032754,,,,,,,,,,,,,,,,
664,261.28653,0.47226414,-0.46612918,0.9941734,,,,,,,,,,,,,,,,
665,261.66534,0.47246167,-1.2372336,0.98453456,,,,,,,,,,,,,,,,
666,262.18298,0.4727311,-1.9180878,0.9760239,,,,,,,,,,,,,,,,
667,262.45822,0.4728741,-2.335309,0.9708086,,,,,,,,,,,,,,,,
668,262.5963,0.47294584,-2.469646,0.96912944,,,,,,,,,,,,,,,,
669,262.56958,0.47293195,-2.5083182,0.96864605,,,,,,,,,,,,,,,,
670,262.44894,0.47286925,-2.6532862,0.96683395,,,,,,,,,,,,,,,,
671,262.2874,0.47278535,-2.9502504,0.9631219,,,,,,,,,,,,,,,,
672,262.05914,0.47266668,-3.302504,0.9587187,,,,,,,,,,,,,,,,
673,261.80875,0.47253639,-3.6024482,0.9549694,,,,,,,,,,,,,,,,
674,261.5304,0.4723914,-3.8240337,0.9521996,,,,,,,,,,,,,,,,
675,261.32538,0.47228444,-4.0038733,0.9499516,,,,,,,,,,,,,,,,
676,261.00296,0.47211617,-4.183502,0.9477062,,,,,,,,,,,,,,,,
677,260.51517,0.47186118,-4.3820543,0.94522434,,,,,,,,,,,,,,,,
678,260.16095,0.47167563,-4.580083,0.94274896,,,,,,,,,,,,,,,,
679,259.76785,0.47146955,-4.7133884,0.94108266,,,,,,,,,,,,,,,,
680,259.54333,0.47135168,-4.7023783,0.9412203,,,,,,,,,,,,,,,,
681,259.33868,0.4712442,-4.476546,0.94404316,,,,,,,,,,,,,,,,
682,259.2473,0.47119614,-3.964776,0.9504403,,,,,,,,,,,,,,,,
683,259.38745,0.4712698,-3.1861515,0.96017313,,,,,,,,,,,,,,,,
684,259.86227,0.47151902,-2.3394442,0.97075695,,,,,,,,,,,,,,,,
685,260.46878,0.47183684,-1.6729554,0.97908807,,,,,,,,,,,,,,,,
686,261.15366,0.47219485,-1.3280326,0.98339957,,,,,,,,,,,,,,,,
687,261.71768,0.47248897,-1.3389525,0.9832631,,,,,,,,,,,,,,,,
688,262.15878,0.47271848,-1.6893252,0.97888345,,,,,,,,,,,,,,,,
689,262.4968,0.4728942,-2.3040004,0.9712,,,,,,,,,,,,,,,,
690,262.6307,0.4729637,-3.0036263,0.9624547,,,,,,,,,,,,,,,,
691,262.5742,0.4729343,-3.5495834,0.9556302,,,,,,,,,,,,,,,,
692,262.35266,0.47281933,-3.8007941,0.9524901,,,,,,,,,,,,,,,,
693,261.984,0.47262755,-3.7921379,0.9525983,,,,,,,,,,,,,,,,
694,261.6084,0.47243202,-3.6377232,0.95452845,,,,,,,,,,,,,,,,
695,261.3411,0.47229263,-3.4465833,0.9569177,,,,,,,,,,,,,,,,
696,261.20187,0.47222,-3.3332868,0.9583339,,,,,,,,,,,,,,,,
697,261.22284,0.472231,-3.4086885,0.9573914,,,,,,,,,,,,,,,,
698,261.44055,0.47234452,-3.7140954,0.9535738,,,,,,,,,,,,,,,,
699,261.79202,0.47252762,-4.165661,0.94792926,,,,,,,,,,,,,,,,
700,262.07367,0.47267425,-4.5867167,0.94266605,,,,,,,,,,,,,,,,
701,262.33643,0.47281086,-4.806034,0.9399246,,,,,,,,,,,,,,,,
702,262.56693,0.4729306,-4.6823864,0.94147015,,,,,,,,,,,,,,,,
703,262.64908,0.47297323,-4.1059947,0.94867504,,,,,,,,,,,,,,,,
704,262.6244,0.47296044,-3.1225824,0.9609677,,,,,,,,,,,,,,,,
705,262.54422,0.47291872,-1.9551816,0.97556025,,,,,,,,,,,,,,,,
706,262.47617,0.4728835,-0.8210642,0.9897367,,,,,,,,,,,,,,,,
707,262.29086,0.47278714,0.18686272,1.0023358,,,,,,,,,,,,,,,,
708,262.01282,0.4726425,1.0475488,1.0130943,,,,,,,,,,,,,,,,
709,261.80353,0.47253367,1.7235161,1.021544,,,,,,,,,,,,,,,,
710,261.6831,0.47247094,2.1615381,1.0270193,,,,,,,,,,,,,,,,
711,261.72156,0.47249097,2.3564422,1.0294555,,,,,,,,,,,,,,,,
712,261.80844,0.4725362,2.3696544,1.0296206,,,,,,,,,,,,,,,,
713,261.83316,0.47254908,2.2694197,1.0283678,,,,,,,,,,,,,,,,
714,261.87512,0.4725709,2.086906,1.0260863,,,,,,,,,,,,,,,,
715,261.9134,0.4725908,1.8384258,1.0229803,,,,,,,,,,,,,,,,
716,262.0146,0.47264352,1.5388957,1.0192362,,,,,,,,,,,,,,,,
717,262.1353,0.47270632,1.1791561,1.0147394,,,,,,,,,,,,,,,,
718,262.18958,0.47273454,0.7549246,1.0094366,,,,,,,,,,,,,,,,
719,262.2608,0.47277147,0.34048706,1.0042561,,,,,,,,,,,,,,,,
720,262.35983,0.47282302,0.06531302,1.0008165,,,,,,,,,,,,,,,,
721,262.36844,0.47282743,-0.021698946,0.99972874,,,,,,,,,,,,,,,,
722,262.35504,0.4728205,-0.014992327,0.9998126,,,,,,,,,,,,,,,,
723,262.05798,0.47266605,-0.06366876,0.99920416,,,,,,,,,,,,,,,,
724,261.8259,0.4725453,-0.27304456,0.9965869,,,,,,,,,,,,,,,,
725,261.60104,0.47242814,-0.66448367,0.991694,,,,,,,,,,,,,,,,
726,261.3758,0.47231072,-1.1767848,0.98529017,,,,,,,,,,,,,,,,
727,261.206,0.47222215,-1.7161736,0.9785478,,,,,,,,,,,,,,,,
728,260.88177,0.47205284,-2.2303925,0.9721201,,,,,,,,,,,,,,,,
729,260.73157,0.47197434,-2.706134,0.96617335,,,,,,,,,,,,,,,,
730,260.56262,0.47188595,-3.0463347,0.9619208,,,,,,,,,,,,,,,,
731,260.59998,0.4719055,-3.036469,0.9620441,,,,,,,,,,,,,,,,
732,260.49628,0.47185126,-2.5758076,0.9678024,,,,,,,,,,,,,,,,
733,260.38214,0.4717915,-1.822545,0.9772182,,,,,,,,,,,,,,,,
734,260.37494,0.4717878,-1.0168859,0.98728895,,,,,,,,,,,,,,,,
735,260.50906,0.47185802,-0.32914287,0.9958857,,,,,,,,,,,,,,,,
736,260.56085,0.47188506,0.13523304,1.0016904,,,,,,,,,,,,,,,,
737,260.65186,0.47193262,0.33000755,1.0041251,,,,,,,,,,,,,,,,
738,260.64877,0.471931,0.2765751,1.0034572,,,,,,,,,,,,,,,,
739,260.62302,0.47191757,0.026458783,1.0003307,,,,,,,,,,,,,,,,
740,260.56595,0.47188777,-0.3660547,0.99542433,,,,,,,,,,,,,,,,
741,260.53107,0.47186947,-0.79183024,0.9901021,,,,,,,,,,,,,,,,
742,260.4799,0.4718427,-1.0429181,0.9869635,,,,,,,,,,,,,,,,
743,260.4491,0.47182658,-0.9481596,0.98814803,,,,,,,,,,,,,,,,
744,260.52975,0.47186875,-0.5480825,0.993149,,,,,,,,,,,,,,,,
745,260.73608,0.4719767,0.0025027168,1.0000312,,,,,,,,,,,,,,,,
746,260.94415,0.47208545,0.60621375,1.0075777,,,,,,,,,,,,,,,,
747,261.27106,0.47225612,1.2154027,1.0151925,,,,,,,,,,,,,,,,
748,261.55417,0.47240373,1.7600895,1.0220011,,,,,,,,,,,,,,,,
749,261.74567,0.47250348,2.1578958,1.0269737,,,,,,,,,,,,,,,,
750,261.8178,0.47254106,2.3684363,1.0296055,,,,,,,,,,,,,,,,
751,261.84842,0.472557,2.4097118,1.0301214,,,,,,,,,,,,,,,,
752,261.90457,0.4725863,2.3213105,1.0290164,,,,,,,,,,,,,,,,
753,261.89166,0.47257954,2.115655,1.0264456,,,,,,,,,,,,,,,,
754,261.82516,0.47254494,1.7746311,1.022183,,,,,,,,,,,,,,,,
755,261.65973,0.4724587,1.2889874,1.0161123,,,,,,,,,,,,,,,,
756,261.3528,0.47229874,0.6934923,1.0086687,,,,,,,,,,,,,,,,
757,261.13382,0.47218448,0.078839675,1.0009855,,,,,,,,,,,,,,,,
758,261.028,0.47212926,-0.4239136,0.9947011,,,,,,,,,,,,,,,,
759,261.00244,0.4721159,-0.6973611,0.991283,,,,,,,,,,,,,,,,
760,261.05804,0.47214493,-0.70365405,0.9912043,,,,,,,,,,,,,,,,
761,261.0064,0.472118,-0.507092,0.99366134,,,,,,,,,,,,,,,,
762,261.03647,0.47213367,-0.23745961,0.99703175,,,,,,,,,,,,,,,,
763,261.16528,0.4722009,-0.010990305,0.9998626,,,,,,,,,,,,,,,,
764,261.20718,0.47222278,0.12399704,1.00155,,,,,,,,,,,,,,,,
765,261.2138,0.4722262,0.17204793,1.0021507,,,,,,,,,,,,,,,,
766,261.1503,0.47219306,0.14377229,1.0017972,,,,,,,,,,,,,,,,
767,260.93304,0.4720796,0.022637062,1.000283,,,,,,,,,,,,,,,,
768,260.71924,0.47196788,-0.22194864,0.99722564,,,,,,,,,,,,,,,,
769,260.68906,0.47195208,-0.571498,0.99285626,,,,,,,,,,,,,,,,
770,260.71835,0.4719674,-0.91039735,0.98862004,,,,,,,,,,,,,,,,
771,260.8069,0.47201374,-1.093119,0.986336,,,,,,,,,,,,,,,,
772,260.99612,0.47211257,-1.0974312,0.9862821,,,,,,,,,,,,,,,,
773,261.29483,0.47226855,-1.0233854,0.9872077,,,,,,,,,,,,,,,,
774,261.46127,0.47235534,-0.9479222,0.98815095,,,,,,,,,,,,,,,,
775,261.43356,0.47234082,-0.886296,0.9889213,,,,,,,,,,,,,,,,
776,261.32925,0.4722865,-0.86763746,0.9891545,,,,,,,,,,,,,,,,
777,261.12106,0.47217783,-0.9661278,0.9879234,,,,,,,,,,,,,,,,
778,260.94113,0.47208384,-1.2364355,0.9845446,,,,,,,,,,,,,,,,
779,260.92828,0.47207716,-1.6770127,0.97903734,,,,,,,,,,,,,,,,
780,260.89816,0.4720614,-2.2623005,0.97172123,,,,,,,,,,,,,,,,
781,261.05682,0.4721443,-2.9101083,0.96362364,,,,,,,,,,,,,,,,
782,261.15488,0.47219548,-3.3471954,0.95816004,,,,,,,,,,,,,,,,
783,261.19327,0.47221547,-3.1836638,0.9602042,,,,,,,,,,,,,,,,
784,261.13763,0.47218648,-2.3782482,0.9702719,,,,,,,,,,,,,,,,
785,261.0045,0.47211692,-1.3195282,0.9835059,,,,,,,,,,,,,,,,
786,261.2088,0.4722236,-0.42145377,0.99473184,,,,,,,,,,,,,,,,
787,261.55847,0.47240597,0.097315066,1.0012164,,,,,,,,,,,,,,,,
788,261.9345,0.4726019,0.20046529,1.0025058,,,,,,,,,,,,,,,,
789,262.258,0.47277012,-0.028917916,0.9996385,,,,,,,,,,,,,,,,
790,262.45563,0.47287276,-0.44457367,0.9944428,,,,,,,,,,,,,,,,
791,262.66885,0.4729835,-0.86301833,0.9892123,,,,,,,,,,,,,,,,
792,262.7501,0.4730256,-1.1124946,0.9860938,,,,,,,,,,,,,,,,
793,262.971,0.4731402,-1.162936,0.9854633,,,,,,,,,,,,,,,,
794,263.05002,0.47318113,-1.1332365,0.98583454,,,,,,,,,,,,,,,,
795,263.03497,0.47317338,-1.0675596,0.98665553,,,,,,,,,,,,,,,,
796,263.05716,0.47318482,-0.8170979,0.98978627,,,,,,,,,,,,,,,,
797,262.91248,0.47310984,-0.26206306,0.9967242,,,,,,,,,,,,,,,,
798,262.7343,0.4730174,0.5130176,1.0064127,,,,,,,,,,,,,,,,
799,262.56284,0.47292843,1.3698459,1.0171231,,,,,,,,,,,,,,,,
800,262.46307,0.47287664,2.2429771,1.0280372,,,,,,,,,,,,,,,,
801,262.37436,0.4728305,3.1012127,1.0387652,,,,,,,,,,,,,,,,
802,262.12845,0.4727027,3.8983634,1.0487295,,,,,,,,,,,,,,,,
803,261.8679,0.4725671,4.5765862,1.0572073,,,,,,,,,,,,,,,,
804,261.78452,0.47252375,5.0920124,1.0636501,,,,,,,,,,,,,,,,
805,261.71582,0.472488,5.433048,1.067913,,,,,,,,,,,,,,,,
806,261.71527,0.47248772,5.6197596,1.0702469,,,,,,,,,,,,,,,,
807,261.66724,0.47246265,5.6913023,1.0711412,,,,,,,,,,,,,,,,
808,261.6379,0.47244743,5.682442,1.0710305,,,,,,,,,,,,,,,,
809,261.71722,0.4724887,5.59575,1.0699469,,,,,,,,,,,,,,,,
810,261.8266,0.47254565,5.4042845,1.0675535,,,,,,,,,,,,,,,,
811,261.8143,0.47253925,5.0953674,1.0636921,,,,,,,,,,,,,,,,
812,261.7227,0.4724916,4.696208,1.0587026,,,,,,,,,,,,,,,,
813,261.69193,0.47247547,4.2438107,1.0530477,,,,,,,,,,,,,,,,
814,261.56622,0.47241002,3.7495012,1.0468688,,,,,,,,,,,,,,,,
815,261.36743,0.4723063,3.21553,1.0401942,,,,,,,,,,,,,,,,
816,260.937,0.47208166,2.666308,1.0333289,,,,,,,,,,,,,,,,
817,260.50552,0.47185612,2.1246078,1.0265576,,,,,,,,,,,,,,,,
818,260.0697,0.47162786,1.580035,1.0197505,,,,,,,,,,,,,,,,
819,259.8243,0.4714992,1.0275068,1.0128438,,,,,,,,,,,,,,,,
820,259.7257,0.47144747,0.5283664,1.0066046,,,,,,,,,,,,,,,,
821,259.65213,0.4714088,0.19091132,1.0023865,,,,,,,,,,,,,,,,
822,259.65158,0.47140846,0.080881216,1.001011,,,,,,,,,,,,,,,,
823,259.69547,0.4714316,0.18791765,1.002349,,,,,,,,,,,,,,,,
824,259.93695,0.4715582,0.4698022,1.0058725,,,,,,,,,,,,,,,,
825,260.31708,0.47175744,0.88387215,1.0110484,,,,,,,,,,,,,,,,
826,260.749,0.47198346,1.3897785,1.0173723,,,,,,,,,,,,,,,,
827,261.11517,0.47217476,1.9439251,1.024299,,,,,,,,,,,,,,,,
828,261.34378,0.47229406,2.4871314,1.0310892,,,,,,,,,,,,,,,,
829,261.568,0.47241095,2.9605849,1.0370073,,,,,,,,,,,,,,,,
830,261.7755,0.47251907,3.3354664,1.0416933,,,,,,,,,,,,,,,,
831,261.92184,0.4725952,3.598022,1.0449753,,,,,,,,,,,,,,,,
832,261.96924,0.4726199,3.7240574,1.0465508,,,,,,,,,,,,,,,,
833,261.9718,0.47262126,3.6963177,1.046204,,,,,,,,,,,,,,,,
834,261.92557,0.4725972,3.5342693,1.0441784,,,,,,,,,,,,,,,,
835,261.88525,0.4725762,3.2801106,1.0410014,,,,,,,,,,,,,,,,
836,261.91025,0.47258916,2.955396,1.0369425,,,,,,,,,,,,,,,,
837,261.89896,0.47258332,2.5397687,1.0317471,,,,,,,,,,,,,,,,
838,261.9438,0.47260666,1.9909966,1.0248874,,,,,,,,,,,,,,,,
839,262.00952,0.4726408,1.2838918,1.0160487,,,,,,,,,,,,,,,,
840,262.15176,0.47271478,0.43331674,1.0054165,,,,,,,,,,,,,,,,
841,262.28754,0.47278544,-0.5200815,0.993499,,,,,,,,,,,,,,,,
842,262.48083,0.47288582,-1.5596517,0.98050433,,,,,,,,,,,,,,,,
843,262.74942,0.47302532,-2.7030928,0.9662113,,,,,,,,,,,,,,,,
844,263.239,0.47327906,-3.8806071,0.9514924,,,,,,,,,,,,,,,,
845,263.7296,0.47353292,-4.781824,0.9402272,,,,,,,,,,,,,,,,
846,264.19186,0.4737715,-5.0499425,0.9368757,,,,,,,,,,,,,,,,
847,264.35712,0.47385687,-4.6957765,0.9413028,,,,,,,,,,,,,,,,
848,264.3341,0.47384498,-3.9931223,0.950086,,,,,,,,,,,,,,,,
849,264.1289,0.4737391,-3.1991305,0.9600109,,,,,,,,,,,,,,,,
850,263.76947,0.47355345,-2.5004482,0.9687444,,,,,,,,,,,,,,,,
851,263.30334,0.47331232,-2.0106463,0.9748669,,,,,,,,,,,,,,,,
852,262.79138,0.47304702,-1.7761774,0.9777978,,,,,,,,,,,,,,,,
853,262.43997,0.47286466,-1.8111959,0.97736007,,,,,,,,,,,,,,,,
854,262.19254,0.47273606,-2.1011417,0.97373575,,,,,,,,,,,,,,,,
855,262.12842,0.47270262,-2.5791044,0.9677612,,,,,,,,,,,,,,,,
856,262.23923,0.4727603,-3.1390536,0.96076185,,,,,,,,,,,,,,,,
857,262.44055,0.47286493,-3.6734586,0.9540818,,,,,,,,,,,,,,,,
858,262.7269,0.4730136,-4.105257,0.9486843,,,,,,,,,,,,,,,,
859,263.1239,0.47321942,-4.4217696,0.9447279,,,,,,,,,,,,,,,,
860,263.63507,0.47348398,-4.70359,0.94120514,,,,,,,,,,,,,,,,
861,264.24258,0.47379774,-5.0919,0.93635124,,,,,,,,,,,,,,,,
862,264.68173,0.47402412,-5.6801853,0.9289977,,,,,,,,,,,,,,,,
863,265.16336,0.47427192,-6.3530974,0.9205863,,,,,,,,,,,,,,,,
864,265.24255,0.47431263,-6.591563,0.91760546,,,,,,,,,,,,,,,,
865,264.99045,0.47418296,-5.8490477,0.9268869,,,,,,,,,,,,,,,,
866,264.3189,0.47383714,-4.4186316,0.9447671,,,,,,,,,,,,,,,,
867,263.4075,0.4733663,-2.9947984,0.962565,,,,,,,,,,,,,,,,
868,262.85397,0.47307947,-1.9432229,0.97570974,,,,,,,,,,,,,,,,
869,262.4792,0.472885,-1.2981429,0.98377323,,,,,,,,,,,,,,,,
870,262.2958,0.47278967,-0.98715585,0.9876605,,,,,,,,,,,,,,,,
871,262.20248,0.4727412,-0.94388384,0.98820144,,,,,,,,,,,,,,,,
872,262.0964,0.47268605,-1.1138358,0.9860771,,,,,,,,,,,,,,,,
873,261.92715,0.47259802,-1.4309466,0.9821132,,,,,,,,,,,,,,,,
874,261.73523,0.4724981,-1.8060913,0.97742385,,,,,,,,,,,,,,,,
875,261.573,0.47241354,-2.1582286,0.97302216,,,,,,,,,,,,,,,,
876,261.36172,0.47230345,-2.4619565,0.9692255,,,,,,,,,,,,,,,,
877,261.16086,0.47219855,-2.7263749,0.9659203,,,,,,,,,,,,,,,,
878,260.92587,0.4720759,-2.9077685,0.9636529,,,,,,,,,,,,,,,,
879,260.72473,0.47197074,-2.934328,0.9633209,,,,,,,,,,,,,,,,
880,260.76947,0.47199416,-2.818053,0.9647743,,,,,,,,,,,,,,,,
881,260.96356,0.47209555,-2.6167347,0.9672908,,,,,,,,,,,,,,,,
882,261.11526,0.47217476,-2.3358133,0.9708023,,,,,,,,,,,,,,,,
883,261.24023,0.4722401,-1.9540613,0.97557425,,,,,,,,,,,,,,,,
884,261.36624,0.47230577,-1.4918818,0.9813515,,,,,,,,,,,,,,,,
885,261.32944,0.47228658,-1.0193173,0.98725855,,,,,,,,,,,,,,,,
886,261.35583,0.4723003,-0.5991455,0.9925107,,,,,,,,,,,,,,,,
887,261.34747,0.47229597,-0.2454286,0.99693215,,,,,,,,,,,,,,,,
888,261.27536,0.4722584,0.05331774,1.0006665,,,,,,,,,,,,,,,,
889,261.28775,0.47226477,0.2889154,1.0036114,,,,,,,,,,,,,,,,
890,261.32452,0.47228396,0.43328223,1.005416,,,,,,,,,,,,,,,,
891,261.19263,0.47221512,0.4743281,1.0059291,,,,,,,,,,,,,,,,
892,261.0904,0.47216177,0.439976,1.0054997,,,,,,,,,,,,,,,,
893,261.06125,0.47214654,0.38554287,1.0048193,,,,,,,,,,,,,,,,
894,261.05777,0.47214475,0.34726387,1.0043408,,,,,,,,,,,,,,,,
895,261.25427,0.4722473,0.31685406,1.0039607,,,,,,,,,,,,,,,,
896,261.42676,0.4723373,0.2660096,1.0033251,,,,,,,,,,,,,,,,
897,261.48364,0.47236696,0.17172214,1.0021465,,,,,,,,,,,,,,,,
898,261.70804,0.47248393,0.006157352,1.000077,,,,,,,,,,,,,,,,
899,262.00195,0.47263685,-0.26849705,0.9966438,,,,,,,,,,,,,,,,
900,262.3362,0.47281066,-0.66941476,0.99163234,,,,,,,,,,,,,,,,
901,262.72354,0.4730118,-1.1483144,0.98564607,,,,,,,,,,,,,,,,
902,263.01807,0.47316453,-1.5796059,0.98025495,,,,,,,,,,,,,,,,
903,263.14352,0.4732296,-1.8199892,0.97725016,,,,,,,,,,,,,,,,
904,263.2681,0.4732941,-1.8209165,0.97723854,,,,,,,,,,,,,,,,
905,263.1816,0.47324932,-1.669889,0.9791264,,,,,,,,,,,,,,,,
906,262.92563,0.4731167,-1.50885,0.98113936,,,,,,,,,,,,,,,,
907,262.70514,0.47300225,-1.4645009,0.98169374,,,,,,,,,,,,,,,,
908,262.45987,0.472875,-1.6359088,0.97955114,,,,,,,,,,,,,,,,
909,262.53625,0.47291467,-2.0829372,0.97396326,,,,,,,,,,,,,,,,
910,262.70206,0.4730007,-2.785696,0.9651788,,,,,,,,,,,,,,,,
911,263.01105,0.47316092,-3.6151633,0.95481044,,,,,,,,,,,,,,,,
912,263.46228,0.4733946,-4.3603244,0.94549596,,,,,,,,,,,,,,,,
913,263.61206,0.4734721,-4.8338084,0.9395774,,,,,,,,,,,,,,,,
914,263.5395,0.4734345,-4.951565,0.93810546,,,,,,,,,,,,,,,,
915,263.16064,0.47323853,-4.693379,0.94133276,,,,,,,,,,,,,,,,
916,262.61606,0.47295603,-4.1135697,0.9485804,,,,,,,,,,,,,,,,
917,261.9887,0.47263,-3.361711,0.9579786,,,,,,,,,,,,,,,,
918,261.51416,0.4723828,-2.6245852,0.9671927,,,,,,,,,,,,,,,,
919,261.23892,0.47223938,-2.051941,0.97435075,,,,,,,,,,,,,,,,
920,261.02982,0.47213024,-1.7372503,0.97828436,,,,,,,,,,,,,,,,
921,261.00705,0.47211835,-1.7201027,0.9784987,,,,,,,,,,,,,,,,
922,261.22952,0.4722345,-1.9566085,0.97554237,,,,,,,,,,,,,,,,
923,261.45795,0.47235364,-2.2978654,0.9712767,,,,,,,,,,,,,,,,
924,261.73352,0.47249717,-2.5168588,0.96853924,,,,,,,,,,,,,,,,
925,261.9735,0.47262216,-2.4246082,0.9696924,,,,,,,,,,,,,,,,
926,262.29077,0.47278714,-2.0176234,0.9747797,,,,,,,,,,,,,,,,
927,262.56833,0.47293124,-1.4655228,0.981681,,,,,,,,,,,,,,,,
928,262.64987,0.4729736,-0.96251667,0.98796856,,,,,,,,,,,,,,,,
929,262.73978,0.47302026,-0.61945766,0.99225676,,,,,,,,,,,,,,,,
930,262.7141,0.47300693,-0.45399797,0.99432504,,,,,,,,,,,,,,,,
931,262.57733,0.47293591,-0.4214567,0.9947318,,,,,,,,,,,,,,,,
932,262.40323,0.47284555,-0.48555997,0.9939305,,,,,,,,,,,,,,,,
933,262.2727,0.47277778,-0.66485614,0.9916893,,,,,,,,,,,,,,,,
934,262.0982,0.47268704,-0.98965204,0.98762935,,,,,,,,,,,,,,,,
935,261.91168,0.47259,-1.4017009,0.98247874,,,,,,,,,,,,,,,,
936,261.9325,0.4726007,-1.7301145,0.9783736,,,,,,,,,,,,,,,,
937,261.96036,0.4726153,-1.8171412,0.97728574,,,,,,,,,,,,,,,,
938,261.88254,0.47257477,-1.6474481,0.9794069,,,,,,,,,,,,,,,,
939,261.76505,0.4725136,-1.2978897,0.9837764,,,,,,,,,,,,,,,,
940,261.50916,0.4723803,-0.8360553,0.9895493,,,,,,,,,,,,,,,,
941,261.19373,0.47221577,-0.35353592,0.9955808,,,,,,,,,,,,,,,,
942,260.96814,0.472098,0.020187963,1.0002524,,,,,,,,,,,,,,,,
943,260.85483,0.47203878,0.16520523,1.0020651,,,,,,,,,,,,,,,,
944,260.74152,0.4719796,0.015372443,1.0001922,,,,,,,,,,,,,,,,
945,260.8171,0.47201905,-0.4229,0.9947137,,,,,,,,,,,,,,,,
946,261.1119,0.47217304,-1.0610727,0.9867366,,,,,,,,,,,,,,,,
947,261.4803,0.47236526,-1.7701452,0.9778732,,,,,,,,,,,,,,,,
948,261.90643,0.4725872,-2.5022032,0.96872246,,,,,,,,,,,,,,,,
949,262.08203,0.47267857,-3.2815266,0.9589809,,,,,,,,,,,,,,,,
950,262.0831,0.4726791,-3.9389174,0.9507635,,,,,,,,,,,,,,,,
951,261.9017,0.47258475,-4.011247,0.9498594,,,,,,,,,,,,,,,,
952,261.6696,0.47246385,-3.3458843,0.95817643,,,,,,,,,,,,,,,,
953,261.4255,0.47233668,-2.4242938,0.96969634,,,,,,,,,,,,,,,,
954,261.23453,0.47223702,-1.7840341,0.9776996,,,,,,,,,,,,,,,,
955,261.2519,0.4722461,-1.708489,0.9786439,,,,,,,,,,,,,,,,
956,261.3587,0.4723018,-2.2745852,0.9715677,,,,,,,,,,,,,,,,
957,261.43027,0.4723392,-3.3967974,0.95754004,,,,,,,,,,,,,,,,
958,261.55823,0.47240588,-4.7964287,0.94004464,,,,,,,,,,,,,,,,
959,261.85013,0.4725579,-6.013111,0.9248361,,,,,,,,,,,,,,,,
960,262.20972,0.47274497,-6.7263117,0.9159211,,,,,,,,,,,,,,,,
961,262.3087,0.47279644,-6.925407,0.9134324,,,,,,,,,,,,,,,,
962,262.2535,0.47276777,-6.4596744,0.91925406,,,,,,,,,,,,,,,,
963,261.9953,0.47263342,-5.2301846,0.9346227,,,,,,,,,,,,,,,,
964,261.6898,0.47247437,-3.6984868,0.9537689,,,,,,,,,,,,,,,,
965,261.42032,0.472334,-2.3390188,0.97076225,,,,,,,,,,,,,,,,
966,261.247,0.4722436,-1.2725079,0.98409367,,,,,,,,,,,,,,,,
967,261.1515,0.4721937,-0.45339417,0.99433255,,,,,,,,,,,,,,,,
968,261.2134,0.47222602,0.14150064,1.0017687,,,,,,,,,,,,,,,,
969,261.3677,0.47230658,0.4982535,1.0062282,,,,,,,,,,,,,,,,
970,261.50607,0.47237867,0.62853867,1.0078567,,,,,,,,,,,,,,,,
971,261.69043,0.47247472,0.58784544,1.0073481,,,,,,,,,,,,,,,,
972,261.82184,0.47254312,0.4269176,1.0053365,,,,,,,,,,,,,,,,
973,261.86603,0.4725662,0.16273709,1.0020342,,,,,,,,,,,,,,,,
974,261.9304,0.47259971,-0.19769078,0.99752885,,,,,,,,,,,,,,,,
975,261.95645,0.47261325,-0.63313204,0.9920859,,,,,,,,,,,,,,,,
976,261.9333,0.47260118,-1.1064045,0.98616993,,,,,,,,,,,,,,,,
977,261.9448,0.4726072,-1.5565661,0.9805429,,,,,,,,,,,,,,,,
978,261.77023,0.47251627,-1.8816204,0.97647977,,,,,,,,,,,,,,,,
979,261.4536,0.47235137,-1.9710957,0.9753613,,,,,,,,,,,,,,,,
980,261.0964,0.47216502,-1.8014334,0.9774821,,,,,,,,,,,,,,,,
981,260.72128,0.47196895,-1.4744989,0.98156875,,,,,,,,,,,,,,,,
982,260.4356,0.47181955,-1.1301131,0.9858736,,,,,,,,,,,,,,,,
983,260.1874,0.4716896,-0.85204345,0.9893495,,,,,,,,,,,,,,,,
984,260.2575,0.47172627,-0.64469004,0.9919414,,,,,,,,,,,,,,,,
985,260.35248,0.471776,-0.4693233,0.9941335,,,,,,,,,,,,,,,,
986,260.56265,0.47188595,-0.31291354,0.99608856,,,,,,,,,,,,,,,,
987,260.69708,0.47195634,-0.23004642,0.99712443,,,,,,,,,,,,,,,,
988,260.83392,0.47202778,-0.28038412,0.9964952,,,,,,,,,,,,,,,,
989,261.17554,0.4722063,-0.42723,0.9946596,,,,,,,,,,,,,,,,
990,261.51993,0.47238588,-0.5301168,0.9933735,,,,,,,,,,,,,,,,
991,261.76495,0.4725136,-0.4746225,0.9940672,,,,,,,,,,,,,,,,
992,261.9178,0.47259313,-0.2777429,0.9965282,,,,,,,,,,,,,,,,
993,261.93106,0.47259998,-0.01837383,0.99977034,,,,,,,,,,,,,,,,
994,261.89688,0.47258225,0.23658961,1.0029573,,,,,,,,,,,,,,,,
995,262.00388,0.47263792,0.45537886,1.0056922,,,,,,,,,,,,,,,,
996,262.08206,0.47267866,0.6428626,1.0080358,,,,,,,,,,,,,,,,
997,262.16513,0.47272182,0.7879683,1.0098495,,,,,,,,,,,,,,,,
998,262.31006,0.47279716,0.8341421,1.0104268,,,,,,,,,,,,,,,,
999,262.56433,0.47292918,0.7536695,1.0094209,,,,,,,,,,,,,,,,
1000,262.65033,0.47297385,0.5917021,1.0073962,,,,,,,,,,,,,,,,
1001,262.69827,0.47299874,0.37756777,1.0047196,,,,,,,,,,,,,,,,
1002,262.77066,0.47303623,0.06766344,1.0008458,,,,,,,,,,,,,,,,
1003,262.8229,0.47306335,-0.3842986,0.9951963,,,,,,,,,,,,,,,,
1004,262.88507,0.4730956,-0.9750673,0.9878117,,,,,,,,,,,,,,,,
1005,262.7817,0.47304207,-1.6814828,0.9789815,,,,,,,,,,,,,,,,
1006,262.66476,0.47298133,-2.4603293,0.9692459,,,,,,,,,,,,,,,,
1007,262.58707,0.47294107,-3.2184172,0.9597698,,,,,,,,,,,,,,,,
1008,262.548,0.47292078,-3.8823833,0.9514702,,,,,,,,,,,,,,,,
1009,262.49863,0.47289512,-4.505894,0.94367635,,,,,,,,,,,,,,,,
1010,262.37897,0.47283292,-5.1865773,0.9351678,,,,,,,,,,,,,,,,
1011,262.36026,0.4728233,-5.8970394,0.926287,,,,,,,,,,,,,,,,
1012,262.20657,0.47274336,-6.467916,0.91915107,,,,,,,,,,,,,,,,
1013,262.1955,0.47273758,-6.7705083,0.9153687,,,,,,,,,,,,,,,,
1014,262.056,0.47266504,-6.8515596,0.9143555,,,,,,,,,,,,,,,,
1015,261.99002,0.4726307,-6.7971673,0.9150354,,,,,,,,,,,,,,,,
1016,261.9975,0.47263458,-6.6127276,0.9173409,,,,,,,,,,,,,,,,
1017,262.00735,0.47263974,-6.3432493,0.9207094,,,,,,,,,,,,,,,,
1018,262.12503,0.47270092,-6.1039696,0.9237004,,,,,,,,,,,,,,,,
1019,262.17648,0.4727277,-5.9321604,0.925848,,,,,,,,,,,,,,,,
1020,262.17032,0.47272453,-5.7729025,0.92783874,,,,,,,,,,,,,,,,
1021,262.18253,0.47273085,-5.6095467,0.9298807,,,,,,,,,,,,,,,,
1022,261.9726,0.47262162,-5.4999237,0.93125093,,,,,,,,,,,,,,,,
1023,261.78143,0.47252214,-5.4840918,0.9314489,,,,,,,,,,,,,,,,
1024,261.65842,0.47245806,-5.5700817,0.93037397,,,,,,,,,,,,,,,,
1025,261.5814,0.4724179,-5.7677784,0.92790276,,,,,,,,,,,,,,,,
1026,261.51315,0.47238237,-6.0708923,0.92411387,,,,,,,,,,,,,,,,
1027,261.491,0.47237083,-6.4001675,0.91999793,,,,,,,,,,,,,,,,
1028,261.50848,0.47237995,-6.618695,0.9172663,,,,,,,,,,,,,,,,
1029,261.63287,0.47244474,-6.654607,0.9168174,,,,,,,,,,,,,,,,
1030,261.67245,0.47246537,-6.552499,0.91809374,,,,,,,,,,,,,,,,
1031,261.6155,0.4724357,-6.4423246,0.91947097,,,,,,,,,,,,,,,,
1032,261.68222,0.4724705,-6.451559,0.9193555,,,,,,,,,,,,,,,,
1033,261.7279,0.4724943,-6.621869,0.9172266,,,,,,,,,,,,,,,,
1034,261.70816,0.47248402,-6.9028516,0.91371435,,,,,,,,,,,,,,,,
1035,261.7829,0.47252285,-7.2074804,0.9099065,,,,,,,,,,,,,,,,
1036,261.8441,0.47255474,-7.458702,0.90676624,,,,,,,,,,,,,,,,
1037,261.91458,0.47259143,-7.605183,0.90493524,,,,,,,,,,,,,,,,
1038,261.94592,0.47260773,-7.668726,0.90414095,,,,,,,,,,,,,,,,
1039,261.9121,0.47259018,-7.714944,0.9035632,,,,,,,,,,,,,,,,
1040,261.88428,0.47257566,-7.783425,0.9027072,,,,,,,,,,,,,,,,
1041,261.85938,0.47256267,-7.8993444,0.9012582,,,,,,,,,,,,,,,,
1042,261.795,0.47252917,-8.107181,0.89866024,,,,,,,,,,,,,,,,
1043,261.70242,0.47248104,-8.464783,0.8941902,,,,,,,,,,,,,,,,
1044,261.67688,0.47246772,-9.015709,0.88730365,,,,,,,,,,,,,,,,
1045,261.69525,0.47247726,-9.779545,0.8777557,,,,,,,,,,,,,,,,
1046,261.86047,0.47256333,-10.750105,0.8656237,,,,,,,,,,,,,,,,
1047,262.05908,0.47266668,-11.883532,0.85145587,,,,,,,,,,,,,,,,
1048,262.20688,0.47274345,-13.104397,0.83619505,,,,,,,,,,,,,,,,
1049,262.3321,0.4728086,-14.271936,0.8216008,,,,,,,,,,,,,,,,
1050,262.6921,0.4729955,-15.042899,0.8119638,,,,,,,,,,,,,,,,
1051,263.0127,0.47316176,-15.005466,0.8124317,,,,,,,,,,,,,,,,
1052,263.26526,0.4732926,-14.225148,0.82218564,,,,,,,,,,,,,,,,
1053,262.9142,0.47311074,-13.140881,0.835739,,,,,,,,,,,,,,,,
1054,262.35886,0.4728225,-12.080269,0.84899664,,,,,,,,,,,,,,,,
1055,261.9996,0.47263578,-11.220312,0.8597461,,,,,,,,,,,,,,,,
1056,261.66147,0.47245958,-10.654326,0.86682093,,,,,,,,,,,,,,,,
1057,261.2015,0.47221982,-10.407364,0.869908,,,,,,,,,,,,,,,,
1058,260.92728,0.47207662,-10.475359,0.869058,,,,,,,,,,,,,,,,
1059,260.60706,0.4719092,-10.930464,0.8633692,,,,,,,,,,,,,,,,
1060,260.1586,0.47167447,-12.077754,0.8490281,,,,,,,,,,,,,,,,
1061,259.50928,0.47133383,-14.412607,0.8198424,,,,,,,,,,,,,,,,
